<?xml version="1.0" encoding="utf-8"?>
<!-- Generator: Adobe Illustrator 22.0.0, SVG Export Plug-In . SVG Version: 6.00 Build 0)  -->
<svg version="1.1" id="レイヤー_1" xmlns="http://www.w3.org/2000/svg" xmlns:xlink="http://www.w3.org/1999/xlink" x="0px"
	 y="0px" viewBox="0 0 534.8 145.9" style="enable-background:new 0 0 534.8 145.9;" xml:space="preserve">
<style type="text/css">
	.st0{fill:#E5E2DD;stroke:#000000;stroke-width:0.5;}
	.st1{fill:#EA5504;}
	.st2{fill:#F08437;}
	.st3{fill:#F9C158;}
	.st4{fill:#FFE67A;}
	.st5{fill:#716D67;}
	.st6{fill:#A78437;}
</style>
<path class="st0" d="M-21.3-7.9"/>
<path class="st0" d="M-21.3,304"/>
<g>
	<g>
		<path class="st1" d="M29.4,105.9c-3.5-6.8-5.3-14.6-5.1-22.8c0.6-26.5,22.6-47.4,49-46.8c16.2,0.4,30.3,8.7,38.6,21.2
			c-7.7-15.2-23.4-25.8-41.6-26.3c-26.5-0.6-48.4,20.3-49,46.8C21,88.4,24.1,98,29.4,105.9z"/>
		<path class="st2" d="M57.2,123.2c-6.4-2.6-11.5-7.5-15.7-13.1c-12.4-16.3-10.6-42.3,7.7-57.5c11.2-9.3,25.7-11.9,38.8-8.4
			c-14.2-5.8-31.1-3.8-43.8,6.7c-18.3,15.2-20,40.8-7.7,57.5C41.9,115.9,49.1,120.4,57.2,123.2z"/>
		<path class="st3" d="M74.9,125.9c-6.1-1.2-12-3.8-17.1-8C41.1,104.5,38.6,80,52.1,63.4c8.2-10.2,14.7-12.8,26.8-13.8
			C65,48.1,56.6,51.3,47.3,62.8c-13.5,16.7-10.9,41.1,5.7,54.6C59.6,122.6,67.2,125.4,74.9,125.9z"/>
		<path class="st4" d="M88.2,123.2c-5.6,0.4-10.3-1.6-15.7-4.1c-16.4-7.5-24.1-25.2-18-41.9c2.2-6,5.8-13.1,14.2-18.8
			C58,62.1,53.1,68.6,50.2,76.7c-6.3,17.9,1.6,35.2,18,43C75,122.9,81.4,124.6,88.2,123.2z"/>
	</g>
</g>
<g>
	<g>
		<g>
			<path class="st5" d="M69.4,102.8c0.3,0.1,0.5,0.1,0.6,0.1c0.1,0,0.2,0,0.2-0.1c0,0,0.1-0.1,0.1-0.2h0.2l-0.3,1.9l-0.2,0
				c0-0.4-0.1-0.7-0.2-0.9c-0.2-0.4-0.6-0.6-1.2-0.6c-0.9,0-1.6,0.4-2.1,1.3c-0.5,0.7-0.7,1.6-0.7,2.4c0,0.7,0.1,1.1,0.4,1.5
				c0.3,0.3,0.7,0.5,1.1,0.5c0.5,0,0.9-0.1,1.3-0.4c0.2-0.1,0.5-0.4,0.9-0.8l0.2,0.1c-0.3,0.4-0.7,0.8-1.2,1
				c-0.4,0.3-0.9,0.4-1.4,0.4c-0.8,0-1.4-0.2-1.8-0.7c-0.4-0.5-0.6-1.1-0.6-1.7c0-1,0.4-1.8,1.1-2.6c0.8-0.9,1.7-1.3,2.8-1.3
				C68.7,102.7,69,102.8,69.4,102.8z"/>
			<path class="st5" d="M72.4,104.9C72.4,104.9,72.4,104.9,72.4,104.9c0,0.1,0,0.1,0,0.1l-0.5,1.8l0.1-0.2c0.2-0.4,0.5-0.8,0.8-1.2
				c0.3-0.4,0.6-0.5,0.8-0.5c0.1,0,0.3,0,0.3,0.1c0.1,0.1,0.1,0.2,0.1,0.3c0,0.1,0,0.3-0.1,0.3c-0.1,0.1-0.2,0.1-0.3,0.1
				c-0.1,0-0.2,0-0.2-0.1c0,0-0.1-0.1-0.1-0.1l-0.1-0.1c0,0,0,0,0,0c0,0,0,0-0.1,0c-0.1,0-0.3,0.2-0.5,0.5c-0.2,0.3-0.4,0.7-0.6,1.1
				c-0.1,0.2-0.2,0.6-0.4,0.9c-0.1,0.2-0.2,0.6-0.3,1h-0.7l0.8-2.8c0-0.2,0.1-0.3,0.1-0.4c0-0.1,0-0.2,0-0.3c0-0.1,0-0.2-0.1-0.2
				c0,0-0.1-0.1-0.2-0.1c0,0-0.1,0-0.1,0c-0.1,0-0.1,0-0.2,0v-0.2l0.2,0c0.2,0,0.5-0.1,0.8-0.2C72.2,104.9,72.3,104.8,72.4,104.9
				C72.4,104.8,72.4,104.8,72.4,104.9z"/>
			<path class="st5" d="M75.3,105.8c0.6-0.6,1.2-1,1.9-1c0.2,0,0.4,0.1,0.6,0.2c0.1,0.1,0.2,0.3,0.2,0.5c0,0.4-0.3,0.8-0.8,1.1
				c-0.5,0.3-1.1,0.5-1.6,0.6l-0.3,0c0,0.1-0.1,0.2-0.1,0.3c0,0.1,0,0.2,0,0.3c0,0.3,0.1,0.5,0.3,0.6c0.2,0.2,0.4,0.2,0.6,0.2
				c0.2,0,0.5-0.1,0.7-0.2c0.1-0.1,0.4-0.2,0.6-0.5l0.1,0.1c-0.1,0.2-0.3,0.4-0.6,0.5c-0.5,0.3-0.9,0.5-1.4,0.5
				c-0.3,0-0.6-0.1-0.9-0.3c-0.2-0.2-0.4-0.6-0.4-1C74.4,107.1,74.7,106.5,75.3,105.8z M76.8,106.4c0.4-0.3,0.6-0.7,0.6-1
				c0-0.1,0-0.2-0.1-0.3c-0.1-0.1-0.1-0.1-0.2-0.1c-0.2,0-0.4,0.1-0.6,0.3c-0.2,0.2-0.4,0.4-0.5,0.6c-0.2,0.3-0.3,0.5-0.4,0.7
				c-0.1,0.1-0.1,0.3-0.2,0.4C76,107,76.4,106.8,76.8,106.4z"/>
			<path class="st5" d="M81.8,105c0.1,0.1,0.1,0.2,0.2,0.3l0,0.1l0.1-0.4c0,0,0-0.1,0-0.1c0,0,0,0,0.1,0l0.5-0.1c0,0,0,0,0,0
				c0,0,0,0,0,0.1c0,0,0,0.1,0,0.1c0,0,0,0.1,0,0.1l-0.5,1.7c-0.1,0.4-0.2,0.7-0.3,0.9c-0.1,0.5-0.2,0.7-0.2,0.8c0,0,0,0.1,0,0.1
				c0,0,0.1,0,0.1,0c0,0,0.1,0,0.1,0c0,0,0.1,0,0.1-0.1l0.1-0.1c0,0,0.1,0,0.1-0.1c0,0,0.1-0.1,0.1-0.1l0.3-0.3l0.1,0.1
				c-0.3,0.4-0.6,0.7-0.8,0.8c-0.2,0.1-0.4,0.2-0.6,0.2c-0.1,0-0.2,0-0.3-0.1c-0.1-0.1-0.1-0.2-0.1-0.3c0-0.1,0-0.3,0.1-0.5
				c0-0.2,0.1-0.4,0.1-0.5c-0.1,0.1-0.1,0.2-0.3,0.4c-0.1,0.2-0.3,0.3-0.5,0.5c-0.2,0.2-0.4,0.3-0.6,0.4c-0.2,0.1-0.3,0.1-0.5,0.1
				c-0.2,0-0.5-0.1-0.7-0.3c-0.2-0.2-0.3-0.5-0.3-0.9c0-0.6,0.3-1.3,0.9-2c0.6-0.7,1.2-1.1,1.9-1.1C81.4,104.8,81.6,104.9,81.8,105z
				 M81.6,105.2c-0.1-0.1-0.2-0.2-0.4-0.2c-0.5,0-1,0.4-1.4,1.2c-0.4,0.7-0.6,1.3-0.6,1.7c0,0.2,0.1,0.4,0.2,0.5
				c0.1,0.1,0.2,0.2,0.4,0.2c0.5,0,0.9-0.4,1.3-1.1c0.4-0.7,0.6-1.3,0.6-1.8C81.8,105.5,81.7,105.3,81.6,105.2z"/>
			<path class="st5" d="M83.4,108.6C83.4,108.6,83.4,108.6,83.4,108.6l0.9-3.3h-0.7c0-0.1,0-0.1,0-0.2c0,0,0,0,0.1-0.1
				c0.3-0.1,0.6-0.3,0.7-0.4c0.2-0.1,0.4-0.4,0.7-0.7l0.1-0.1c0,0,0,0,0,0c0,0,0,0,0,0c0,0,0.1,0,0.1,0c0,0,0,0,0,0.1c0,0,0,0,0,0.1
				l-0.3,1h0.8l-0.1,0.3H85l-0.9,3.1c0,0.1,0,0.1,0,0.2c0,0.1,0.1,0.1,0.1,0.1c0.1,0,0.2-0.1,0.3-0.2c0.1-0.1,0.2-0.3,0.4-0.5
				l0.1,0.1l-0.1,0.1c-0.3,0.4-0.5,0.7-0.7,0.8c-0.2,0.2-0.4,0.2-0.6,0.2c-0.2,0-0.3,0-0.3-0.1C83.4,108.9,83.4,108.8,83.4,108.6
				C83.4,108.7,83.4,108.7,83.4,108.6z"/>
			<path class="st5" d="M87.8,104.8C87.8,104.9,87.8,104.9,87.8,104.8l-0.9,3.3c0,0.2-0.1,0.3-0.1,0.3c0,0,0,0.1,0,0.1
				c0,0,0.1,0.1,0.1,0.1c0.1,0,0.2-0.1,0.4-0.3c0.1-0.1,0.2-0.3,0.4-0.5l0.1,0.1l0,0.1c-0.2,0.3-0.4,0.6-0.6,0.7
				c-0.2,0.2-0.5,0.3-0.7,0.3c-0.1,0-0.2-0.1-0.3-0.2c-0.1-0.1-0.1-0.2-0.1-0.4c0-0.1,0-0.2,0-0.2c0-0.1,0-0.2,0.1-0.3l0.7-2.4
				c0,0,0-0.1,0-0.1c0,0,0-0.1,0-0.1c0-0.1,0-0.2-0.1-0.2c-0.1,0-0.2,0-0.5,0v-0.2c0.3,0,0.4-0.1,0.5-0.1c0.1,0,0.2,0,0.3-0.1
				c0.1,0,0.3-0.1,0.4-0.1C87.7,104.8,87.8,104.8,87.8,104.8z M87.4,103.7c-0.1-0.1-0.1-0.2-0.1-0.4c0-0.1,0-0.3,0.1-0.4
				c0.1-0.1,0.2-0.1,0.3-0.1c0.1,0,0.2,0,0.3,0.1c0.1,0.1,0.1,0.2,0.1,0.4c0,0.1,0,0.3-0.1,0.4c-0.1,0.1-0.2,0.1-0.3,0.1
				C87.6,103.8,87.4,103.8,87.4,103.7z"/>
			<path class="st5" d="M92.2,105c0.1,0.1,0.1,0.3,0.1,0.4c0,0.4-0.4,1.1-1.2,2.2c-0.8,1-1.2,1.5-1.4,1.5c0,0-0.1-0.1-0.1-0.2
				c0-0.1,0-0.2,0-0.4c0-0.2,0-0.6-0.1-1.1c0-0.5-0.1-0.9-0.1-1.1c-0.1-0.5-0.2-0.9-0.2-1c-0.1-0.2-0.2-0.2-0.4-0.2c0,0-0.1,0-0.1,0
				s-0.1,0-0.2,0v-0.1c0.1,0,0.3-0.1,0.6-0.1c0.3-0.1,0.5-0.1,0.5-0.1l0.2,0c0,0,0.1,0,0.1,0.1c0,0.1,0.1,0.2,0.1,0.3
				c0.1,0.5,0.2,1.1,0.3,1.6c0,0.3,0.1,0.8,0.1,1.4l0.2-0.2c0.3-0.3,0.6-0.7,1-1.2c0.3-0.5,0.5-0.8,0.5-1c0-0.1-0.1-0.2-0.2-0.3
				c-0.1-0.1-0.2-0.3-0.2-0.4c0-0.1,0-0.2,0.1-0.2c0.1-0.1,0.2-0.1,0.3-0.1C91.9,104.9,92.1,104.9,92.2,105z"/>
			<path class="st5" d="M93.7,105.8c0.6-0.6,1.2-1,1.9-1c0.2,0,0.4,0.1,0.6,0.2c0.1,0.1,0.2,0.3,0.2,0.5c0,0.4-0.3,0.8-0.8,1.1
				c-0.5,0.3-1.1,0.5-1.6,0.6l-0.3,0c0,0.1-0.1,0.2-0.1,0.3c0,0.1,0,0.2,0,0.3c0,0.3,0.1,0.5,0.3,0.6c0.2,0.2,0.4,0.2,0.6,0.2
				c0.2,0,0.5-0.1,0.7-0.2c0.1-0.1,0.4-0.2,0.6-0.5l0.1,0.1c-0.1,0.2-0.3,0.4-0.6,0.5c-0.5,0.3-0.9,0.5-1.4,0.5
				c-0.3,0-0.6-0.1-0.9-0.3c-0.2-0.2-0.4-0.6-0.4-1C92.8,107.1,93.1,106.5,93.7,105.8z M95.2,106.4c0.4-0.3,0.6-0.7,0.6-1
				c0-0.1,0-0.2-0.1-0.3c-0.1-0.1-0.1-0.1-0.2-0.1c-0.2,0-0.4,0.1-0.6,0.3c-0.2,0.2-0.4,0.4-0.5,0.6c-0.2,0.3-0.3,0.5-0.4,0.7
				c-0.1,0.1-0.1,0.3-0.2,0.4C94.4,107,94.8,106.8,95.2,106.4z"/>
			<path class="st5" d="M102.5,105c0.1,0.1,0.1,0.2,0.2,0.3l0,0.1l0.1-0.4c0,0,0-0.1,0-0.1c0,0,0,0,0.1,0l0.5-0.1c0,0,0,0,0,0
				c0,0,0,0,0,0.1c0,0,0,0.1,0,0.1c0,0,0,0.1,0,0.1l-0.5,1.7c-0.1,0.4-0.2,0.7-0.3,0.9c-0.1,0.5-0.2,0.7-0.2,0.8c0,0,0,0.1,0,0.1
				c0,0,0.1,0,0.1,0c0,0,0.1,0,0.1,0c0,0,0.1,0,0.1-0.1l0.1-0.1c0,0,0.1,0,0.1-0.1c0,0,0.1-0.1,0.1-0.1l0.3-0.3l0.1,0.1
				c-0.3,0.4-0.6,0.7-0.8,0.8c-0.2,0.1-0.4,0.2-0.6,0.2c-0.1,0-0.2,0-0.3-0.1c-0.1-0.1-0.1-0.2-0.1-0.3c0-0.1,0-0.3,0.1-0.5
				c0-0.2,0.1-0.4,0.1-0.5c-0.1,0.1-0.1,0.2-0.3,0.4c-0.1,0.2-0.3,0.3-0.5,0.5c-0.2,0.2-0.4,0.3-0.6,0.4c-0.2,0.1-0.3,0.1-0.5,0.1
				c-0.2,0-0.5-0.1-0.7-0.3c-0.2-0.2-0.3-0.5-0.3-0.9c0-0.6,0.3-1.3,0.9-2c0.6-0.7,1.2-1.1,1.9-1.1
				C102.2,104.8,102.4,104.9,102.5,105z M102.4,105.2c-0.1-0.1-0.2-0.2-0.4-0.2c-0.5,0-1,0.4-1.4,1.2c-0.4,0.7-0.6,1.3-0.6,1.7
				c0,0.2,0.1,0.4,0.2,0.5c0.1,0.1,0.2,0.2,0.4,0.2c0.5,0,0.9-0.4,1.3-1.1c0.4-0.7,0.6-1.3,0.6-1.8
				C102.5,105.5,102.5,105.3,102.4,105.2z"/>
			<path class="st5" d="M103.9,109l0.8-2.8c0.1-0.2,0.1-0.4,0.1-0.4c0-0.1,0-0.1,0-0.2c0-0.1,0-0.2-0.1-0.2
				c-0.1-0.1-0.2-0.1-0.3-0.1c0,0-0.1,0-0.1,0c0,0-0.1,0-0.1,0v-0.2c0.2,0,0.3-0.1,0.4-0.1c0.1,0,0.2,0,0.3-0.1l0.8-0.2c0,0,0,0,0,0
				l-0.6,2c0.4-0.6,0.7-1,0.9-1.3c0.4-0.5,0.8-0.7,1.2-0.7c0.1,0,0.3,0,0.4,0.1c0.2,0.1,0.3,0.3,0.3,0.5c0,0.1,0,0.2,0,0.2
				c0,0.1,0,0.2-0.1,0.3l-0.6,2.2c0,0,0,0.1,0,0.2c0,0.1,0,0.1,0,0.1c0,0,0,0.1,0,0.1c0,0,0.1,0.1,0.1,0.1c0.1,0,0.2,0,0.3-0.1
				c0.1-0.1,0.3-0.3,0.5-0.6l0.1,0.1c-0.2,0.3-0.4,0.6-0.6,0.7c-0.2,0.2-0.5,0.4-0.7,0.4c-0.1,0-0.2,0-0.3-0.1
				c-0.1-0.1-0.1-0.2-0.1-0.4c0-0.1,0-0.1,0-0.2c0-0.1,0-0.1,0-0.2l0.6-2.2c0-0.1,0.1-0.2,0.1-0.3c0-0.1,0-0.1,0-0.2
				c0-0.1,0-0.1-0.1-0.2c0-0.1-0.1-0.1-0.2-0.1c-0.2,0-0.5,0.2-0.9,0.6c-0.2,0.2-0.4,0.5-0.6,0.9c-0.2,0.3-0.3,0.5-0.4,0.8
				c-0.1,0.3-0.2,0.7-0.4,1.4H103.9z"/>
			<path class="st5" d="M111.9,105c0.1,0.1,0.1,0.2,0.1,0.3l0.5-1.9c0-0.1,0-0.1,0-0.1c0,0,0-0.1,0-0.1c0-0.1,0-0.2-0.1-0.2
				c0,0-0.1,0-0.2,0c-0.1,0-0.1,0-0.1,0c0,0-0.1,0-0.2,0v-0.2c0.3,0,0.8-0.1,1.5-0.2l0,0l0,0.1l-0.9,3.3l-0.6,2.2c0,0.1,0,0.1,0,0.1
				c0,0,0,0.1,0,0.1c0,0.1,0,0.1,0.1,0.2c0,0,0.1,0,0.1,0c0.1,0,0.2-0.1,0.4-0.2c0.1-0.1,0.2-0.2,0.4-0.5l0.1,0.1l-0.1,0.1
				c-0.1,0.2-0.3,0.3-0.4,0.5c-0.3,0.3-0.6,0.5-0.9,0.5c-0.1,0-0.2,0-0.2-0.1c-0.1-0.1-0.2-0.2-0.2-0.4c0-0.1,0-0.2,0-0.3
				c0-0.1,0-0.3,0.1-0.5c-0.2,0.4-0.5,0.6-0.8,0.9c-0.3,0.2-0.6,0.3-0.9,0.3c-0.3,0-0.5-0.1-0.7-0.3c-0.2-0.2-0.3-0.5-0.3-0.9
				c0-0.7,0.3-1.4,0.9-2.1c0.6-0.7,1.2-1.1,1.8-1.1C111.6,104.8,111.8,104.9,111.9,105z M109.6,108.4c0.1,0.1,0.2,0.2,0.4,0.2
				c0.4,0,0.9-0.4,1.3-1.1c0.4-0.7,0.6-1.3,0.6-1.9c0-0.2,0-0.3-0.1-0.5c-0.1-0.1-0.2-0.2-0.4-0.2c-0.5,0-0.9,0.4-1.4,1.1
				c-0.4,0.7-0.6,1.3-0.6,1.8C109.5,108.1,109.5,108.3,109.6,108.4z"/>
			<path class="st5" d="M116.1,107.1l0.2,0c0,0.1,0,0.2,0,0.2c0,0.5,0.1,0.9,0.4,1.2c0.3,0.3,0.6,0.4,1,0.4c0.4,0,0.7-0.1,0.9-0.4
				c0.2-0.3,0.3-0.5,0.3-0.9c0-0.1,0-0.2-0.1-0.4c-0.1-0.2-0.2-0.4-0.3-0.5l-0.6-0.6c-0.5-0.5-0.8-0.9-0.9-1.1
				c-0.1-0.2-0.2-0.5-0.2-0.7c0-0.4,0.1-0.7,0.4-1.1c0.3-0.3,0.7-0.5,1.3-0.5c0.2,0,0.5,0,0.8,0.1c0.3,0.1,0.4,0.1,0.5,0.1
				c0.1,0,0.2,0,0.2-0.1c0.1-0.1,0.1-0.1,0.2-0.2h0.2l-0.4,1.9l-0.2,0c0-0.5-0.1-0.8-0.2-1c-0.2-0.4-0.5-0.6-1-0.6
				c-0.3,0-0.6,0.1-0.7,0.3c-0.2,0.2-0.3,0.4-0.3,0.7c0,0.2,0,0.4,0.1,0.5c0.1,0.1,0.3,0.3,0.5,0.6l0.9,0.9c0.2,0.2,0.3,0.4,0.4,0.6
				c0.1,0.2,0.2,0.5,0.2,0.7c0,0.5-0.2,0.9-0.5,1.3c-0.3,0.4-0.8,0.6-1.4,0.6c-0.3,0-0.6-0.1-0.9-0.2c-0.3-0.1-0.5-0.2-0.6-0.2
				c-0.1,0-0.2,0-0.2,0.1c0,0.1-0.1,0.1-0.1,0.2h-0.2L116.1,107.1z"/>
			<path class="st5" d="M122.5,104.8C122.5,104.9,122.5,104.9,122.5,104.8l-0.9,3.3c0,0.2-0.1,0.3-0.1,0.3c0,0,0,0.1,0,0.1
				c0,0,0.1,0.1,0.1,0.1c0.1,0,0.2-0.1,0.4-0.3c0.1-0.1,0.2-0.3,0.4-0.5l0.1,0.1l0,0.1c-0.2,0.3-0.4,0.6-0.6,0.7
				c-0.2,0.2-0.5,0.3-0.7,0.3c-0.1,0-0.2-0.1-0.3-0.2c-0.1-0.1-0.1-0.2-0.1-0.4c0-0.1,0-0.2,0-0.2c0-0.1,0-0.2,0.1-0.3l0.7-2.4
				c0,0,0-0.1,0-0.1c0,0,0-0.1,0-0.1c0-0.1,0-0.2-0.1-0.2c-0.1,0-0.2,0-0.5,0v-0.2c0.3,0,0.4-0.1,0.5-0.1c0.1,0,0.2,0,0.3-0.1
				c0.1,0,0.3-0.1,0.4-0.1C122.4,104.8,122.5,104.8,122.5,104.8z M122,103.7c-0.1-0.1-0.1-0.2-0.1-0.4c0-0.1,0-0.3,0.1-0.4
				c0.1-0.1,0.2-0.1,0.3-0.1c0.1,0,0.2,0,0.3,0.1c0.1,0.1,0.1,0.2,0.1,0.4c0,0.1,0,0.3-0.1,0.4c-0.1,0.1-0.2,0.1-0.3,0.1
				C122.2,103.8,122.1,103.8,122,103.7z"/>
			<path class="st5" d="M123.1,109l0.8-2.8c0.1-0.2,0.1-0.4,0.1-0.4c0-0.1,0-0.1,0-0.2c0-0.1,0-0.2-0.1-0.2
				c-0.1-0.1-0.2-0.1-0.3-0.1c0,0-0.1,0-0.1,0c0,0-0.1,0-0.1,0v-0.2c0.2,0,0.3-0.1,0.4-0.1c0.1,0,0.2,0,0.3-0.1l0.8-0.2c0,0,0,0,0,0
				l-0.6,2c0.4-0.6,0.7-1,0.9-1.3c0.4-0.5,0.8-0.7,1.2-0.7c0.1,0,0.3,0,0.4,0.1c0.2,0.1,0.3,0.3,0.3,0.5c0,0.1,0,0.2,0,0.2
				c0,0.1,0,0.2-0.1,0.3l-0.6,2.2c0,0,0,0.1,0,0.2c0,0.1,0,0.1,0,0.1c0,0,0,0.1,0,0.1c0,0,0.1,0.1,0.1,0.1c0.1,0,0.2,0,0.3-0.1
				c0.1-0.1,0.3-0.3,0.5-0.6l0.1,0.1c-0.2,0.3-0.4,0.6-0.6,0.7c-0.2,0.2-0.5,0.4-0.7,0.4c-0.1,0-0.2,0-0.3-0.1
				c-0.1-0.1-0.1-0.2-0.1-0.4c0-0.1,0-0.1,0-0.2c0-0.1,0-0.1,0-0.2l0.6-2.2c0-0.1,0.1-0.2,0.1-0.3c0-0.1,0-0.1,0-0.2
				c0-0.1,0-0.1-0.1-0.2c0-0.1-0.1-0.1-0.2-0.1c-0.2,0-0.5,0.2-0.9,0.6c-0.2,0.2-0.4,0.5-0.6,0.9c-0.2,0.3-0.3,0.5-0.4,0.8
				c-0.1,0.3-0.2,0.7-0.4,1.4H123.1z"/>
			<path class="st5" d="M131.5,105.1c0.2,0.2,0.2,0.3,0.2,0.5c0,0.1,0,0.3-0.1,0.3c-0.1,0.1-0.2,0.1-0.3,0.1c-0.1,0-0.2,0-0.3-0.1
				c-0.1-0.1-0.1-0.2-0.1-0.3c0-0.1,0-0.2,0.1-0.3c0-0.1,0.1-0.2,0.1-0.2c0-0.1,0-0.1-0.1-0.1c-0.1,0-0.2-0.1-0.3-0.1
				c-0.5,0-0.9,0.3-1.3,0.8c-0.4,0.6-0.5,1.2-0.5,1.8c0,0.3,0.1,0.6,0.2,0.8c0.1,0.2,0.4,0.3,0.7,0.3c0.2,0,0.5-0.1,0.7-0.2
				c0.2-0.1,0.4-0.3,0.6-0.5l0,0l0.1,0.1c-0.2,0.3-0.4,0.5-0.6,0.6c-0.4,0.3-0.7,0.4-1.2,0.4c-0.4,0-0.7-0.1-1-0.4
				c-0.3-0.3-0.4-0.6-0.4-1.1c0-0.7,0.3-1.3,0.9-1.9c0.6-0.6,1.2-0.9,1.8-0.9C131,104.9,131.3,104.9,131.5,105.1z"/>
			<path class="st5" d="M133.1,105.8c0.6-0.6,1.2-1,1.9-1c0.2,0,0.4,0.1,0.6,0.2c0.1,0.1,0.2,0.3,0.2,0.5c0,0.4-0.3,0.8-0.8,1.1
				c-0.5,0.3-1.1,0.5-1.6,0.6l-0.3,0c0,0.1-0.1,0.2-0.1,0.3c0,0.1,0,0.2,0,0.3c0,0.3,0.1,0.5,0.3,0.6c0.2,0.2,0.4,0.2,0.6,0.2
				c0.2,0,0.5-0.1,0.7-0.2c0.1-0.1,0.4-0.2,0.6-0.5l0.1,0.1c-0.1,0.2-0.3,0.4-0.6,0.5c-0.5,0.3-0.9,0.5-1.4,0.5
				c-0.3,0-0.6-0.1-0.9-0.3c-0.2-0.2-0.4-0.6-0.4-1C132.2,107.1,132.5,106.5,133.1,105.8z M134.6,106.4c0.4-0.3,0.6-0.7,0.6-1
				c0-0.1,0-0.2-0.1-0.3c-0.1-0.1-0.1-0.1-0.2-0.1c-0.2,0-0.4,0.1-0.6,0.3c-0.2,0.2-0.4,0.4-0.5,0.6c-0.2,0.3-0.3,0.5-0.4,0.7
				c-0.1,0.1-0.1,0.3-0.2,0.4C133.8,107,134.2,106.8,134.6,106.4z"/>
			<path class="st5" d="M138.1,104.9C138.1,104.9,138.1,104.9,138.1,104.9c0,0.1,0,0.1,0,0.1l-0.5,1.8l0.1-0.2
				c0.2-0.4,0.5-0.8,0.8-1.2c0.3-0.4,0.6-0.5,0.8-0.5c0.1,0,0.3,0,0.3,0.1c0.1,0.1,0.1,0.2,0.1,0.3c0,0.1,0,0.3-0.1,0.3
				c-0.1,0.1-0.2,0.1-0.3,0.1c-0.1,0-0.2,0-0.2-0.1c0,0-0.1-0.1-0.1-0.1l-0.1-0.1c0,0,0,0,0,0c0,0,0,0-0.1,0c-0.1,0-0.3,0.2-0.5,0.5
				c-0.2,0.3-0.4,0.7-0.6,1.1c-0.1,0.2-0.2,0.6-0.4,0.9c-0.1,0.2-0.2,0.6-0.3,1h-0.7l0.8-2.8c0-0.2,0.1-0.3,0.1-0.4
				c0-0.1,0-0.2,0-0.3c0-0.1,0-0.2-0.1-0.2c0,0-0.1-0.1-0.2-0.1c0,0-0.1,0-0.1,0c-0.1,0-0.1,0-0.2,0v-0.2l0.2,0
				c0.2,0,0.5-0.1,0.8-0.2C137.9,104.9,138,104.8,138.1,104.9C138.1,104.8,138.1,104.8,138.1,104.9z"/>
			<path class="st5" d="M141,105.8c0.6-0.6,1.2-1,1.9-1c0.2,0,0.4,0.1,0.6,0.2c0.1,0.1,0.2,0.3,0.2,0.5c0,0.4-0.3,0.8-0.8,1.1
				c-0.5,0.3-1.1,0.5-1.6,0.6l-0.3,0c0,0.1-0.1,0.2-0.1,0.3c0,0.1,0,0.2,0,0.3c0,0.3,0.1,0.5,0.3,0.6c0.2,0.2,0.4,0.2,0.6,0.2
				c0.2,0,0.5-0.1,0.7-0.2c0.1-0.1,0.4-0.2,0.6-0.5l0.1,0.1c-0.1,0.2-0.3,0.4-0.6,0.5c-0.5,0.3-0.9,0.5-1.4,0.5
				c-0.3,0-0.6-0.1-0.9-0.3c-0.2-0.2-0.4-0.6-0.4-1C140.1,107.1,140.4,106.5,141,105.8z M142.5,106.4c0.4-0.3,0.6-0.7,0.6-1
				c0-0.1,0-0.2-0.1-0.3c-0.1-0.1-0.1-0.1-0.2-0.1c-0.2,0-0.4,0.1-0.6,0.3c-0.2,0.2-0.4,0.4-0.5,0.6c-0.2,0.3-0.3,0.5-0.4,0.7
				c-0.1,0.1-0.1,0.3-0.2,0.4C141.6,107,142.1,106.8,142.5,106.4z"/>
		</g>
	</g>
	<g>
		<path class="st5" d="M67.1,70.5c-2.3,3-3.5,7-3.5,12c0,5.9,1.5,10.3,4.4,13.3c-2.2-0.9-4-2.6-5.2-5c-1.3-2.4-1.9-5.1-1.9-8.1
			c0-2.1,0.3-4,1-5.7c0.6-1.7,1.4-3.1,2.3-4C64.8,71.9,65.9,71.1,67.1,70.5z M92.7,91.9h0.6l-1,5.2c-1.9,0.7-3.7,1.3-5.5,1.6
			c-1.8,0.3-3.5,0.5-5.1,0.5c-5,0-8.9-1.4-11.7-4.3c-2.8-2.9-4.2-7.1-4.2-12.5c0-5.5,1.5-9.6,4.5-12.5c3-2.9,7-4.3,11.9-4.3
			c3.6,0,7.2,0.6,10.8,1.9c-0.2,2.6-0.2,4.1-0.2,4.6c0,0.4,0,0.9,0,1.3v0.7c0,1.1-0.1,2.1-0.2,3h-0.5c-1.3-6.2-4.8-9.3-10.7-9.3
			c-3.9,0-7.1,1.3-9.4,3.8c-2.3,2.5-3.5,6.2-3.5,11c0,4.2,1.1,7.6,3.2,10.3c2.1,2.6,5.4,3.9,9.7,3.9c2.4,0,4.6-0.5,6.5-1.4
			C90,94.6,91.5,93.4,92.7,91.9z"/>
		<path class="st5" d="M98.1,89.6c-0.4,1-0.6,2.1-0.6,3.1c0,1.4,0.3,2.7,1,3.8c0.7,1.1,1.6,2,2.6,2.5c-1.6-0.1-2.8-0.6-3.8-1.6
			c-1-1-1.5-2.1-1.5-3.5C95.8,92.3,96.6,90.9,98.1,89.6z M110.5,96.8c-1.6,1.5-3.3,2.2-5.2,2.2c-1.9,0-3.4-0.7-4.6-2.1
			c-1.2-1.4-1.8-2.9-1.8-4.4c0-2.1,1-3.8,2.9-5.2c-1.2-1.7-1.8-3.1-1.8-4c0-0.7,0.2-1.5,0.5-2.2c0,0.9,0.3,1.8,0.8,2.8
			c0.3,0.5,0.7,1.1,1.2,1.9c0.5,0.7,1.3,1.7,2.3,2.8c0.3,0.4,0.8,1,1.5,1.8c0.7,0.8,1.4,1.5,2,2.2c0.7,0.7,1.1,1.2,1.4,1.5
			c1.5,1.6,2.8,2.7,3.8,3.4c1.1,0.7,2.2,1.2,3.1,1.4c-0.4,0.1-0.8,0.1-1.2,0.1c-1.1,0-2.1-0.2-2.8-0.6C112,98,111.3,97.5,110.5,96.8
			z M102.7,88.5c-1.4,1.1-2.1,2.4-2.1,3.9c0,1.2,0.5,2.4,1.4,3.4c0.9,1.1,2.2,1.6,3.7,1.6c1.2,0,2.4-0.6,3.6-1.7
			c-0.5-0.5-1.1-1.1-1.8-1.9c-0.7-0.8-1.4-1.5-2.1-2.3c-0.7-0.8-1.3-1.4-1.7-2C103.1,88.9,102.8,88.5,102.7,88.5z M120,96.6l0.2,0.3
			c-0.9,0.5-1.6,0.8-2.3,0.8c-0.9,0-2-0.4-3.3-1.3c-0.7-0.5-1.5-1.2-2.4-2.1c-0.9-0.9-2.1-2.1-3.5-3.6c-2.6-2.8-4.4-4.9-5.4-6.3
			c-0.9-1.3-1.4-2.4-1.4-3.2c0-0.9,0.4-1.6,1.1-2.3c0.7-0.6,1.8-0.9,3.1-0.9c1.3,0,2.3,0.3,3.2,1c0.9,0.7,1.3,1.5,1.3,2.6
			c0,1.7-1.3,3.3-3.8,4.8c1.2,1.4,3,3.4,5.7,6.1c1.3-1.5,1.9-2.6,1.9-3.4c0-0.9-0.7-1.5-2.2-1.7v-0.3c2,0.2,3.5,0.3,4.4,0.3
			c0.2,0,0.6,0,1.3,0c0.7,0,1.4-0.1,1.9-0.1v0.3c-1.1,0-2.4,1-3.8,2.8l-1.2,1.6c0,0-0.1,0.1-0.2,0.2l-0.9,1.2c2.3,2.2,4,3.4,5.3,3.4
			C119.2,96.9,119.6,96.8,120,96.6z M105.4,84.7l0.4,0.5c1.6-0.8,2.4-1.9,2.4-3.3c0-0.8-0.2-1.4-0.7-1.8c-0.4-0.4-1-0.6-1.7-0.6
			c-0.8,0-1.4,0.2-1.8,0.6c-0.4,0.4-0.6,0.8-0.6,1.2C103.4,82,104.1,83.2,105.4,84.7z"/>
		<path class="st5" d="M123.6,87.9h0.7c0.1,2.6,1.2,4.8,3.2,6.5c1.9,1.7,4.1,2.5,6.7,2.5c1.9,0,3.5-0.5,4.7-1.6
			c1.2-1.1,1.8-2.4,1.8-3.9c0-1.6-0.6-2.8-1.8-3.7c-1.1-0.9-3.4-1.8-6.7-2.9c-2.7-0.9-4.6-1.6-5.7-2.2c-1.3-0.7-2.3-1.6-3.1-2.7
			c-0.8-1.2-1.2-2.5-1.2-3.9c0-1.6,0.5-3.2,1.6-4.8c-0.2,0.8-0.4,1.5-0.4,2.1c0,1.6,0.4,3,1.1,4.2c0.8,1.3,1.7,2.2,2.9,2.8
			c1.1,0.7,3.1,1.4,5.8,2.2c3.5,1.1,6,2.2,7.6,3.5c1.5,1.3,2.2,2.9,2.2,5.1c0,2.1-0.8,4-2.3,5.6c-1.6,1.7-3.9,2.6-7.1,2.6
			c-1.3,0-3-0.2-5.3-0.7c-2-0.4-3.4-0.6-4.4-0.6l-0.2-0.2c0-0.3,0-0.8,0-1.4c0-0.7-0.1-1.7-0.2-3c-0.1-1.4-0.2-2.4-0.2-3.1
			C123.4,89.3,123.5,88.5,123.6,87.9z M145.3,75h-0.6c0-2.4-1-4.1-2.8-5.3c-1.8-1.1-4-1.7-6.7-1.7c-2.1,0-3.8,0.4-5.1,1.3
			c-1.4,0.9-2,1.9-2,3.2c0,1.3,0.5,2.3,1.6,3.1c1.1,0.8,3.3,1.8,6.6,2.9c3,1,5.2,1.9,6.4,2.6c1.3,0.7,2.4,1.7,3.2,3.1
			c0.9,1.4,1.3,2.9,1.3,4.6c0,2.6-0.9,4.6-2.8,6c0.7-1,1-2.3,1-4.1c0-1.6-0.4-3.1-1.1-4.4c-0.8-1.3-1.8-2.3-3-3.1
			c-1.2-0.8-3.1-1.6-5.8-2.5c-4-1.3-6.7-2.5-7.9-3.4c-1.2-1-1.8-2.5-1.8-4.5c0-2.3,0.9-4.2,2.8-5.5c1.9-1.3,4.6-1.9,8-1.9
			c2.4,0,5.2,0.4,8.7,1.2v0.2l0.1,1.2c0,0.6,0,1.4,0.1,2.2c0.1,1,0.1,2,0.1,2.8C145.4,73.6,145.3,74.3,145.3,75z"/>
	</g>
</g>
<g>
	<g>
		<path class="st6" d="M181.8,80.3l2.3,2.4c0.1,0.1,0.1,0.2,0.1,0.3c0,0.1-0.1,0.1-0.3,0.1h-10v13.7h9.4l1.5-1.9l2,2.2
			c0.1,0.1,0.1,0.2,0.1,0.3c0,0.1-0.2,0.1-0.5,0.1h-23.1c-0.4,0-0.9,0-1.7,0.1l-0.3-0.8h10.2V73.5l3.2,1.2c0.2,0.1,0.3,0.2,0.3,0.3
			c0,0.1-0.1,0.2-0.2,0.3c-0.1,0.1-0.3,0.4-0.8,0.8v6.3h6.6L181.8,80.3z"/>
		<path class="st6" d="M189.7,79.1c1.7,0.6,2.9,1.2,3.4,1.6c0.6,0.4,0.9,0.8,0.9,1.1c0,0.5-0.2,1-0.5,1.4c-0.4,0.5-0.7,0.7-1,0.7
			c-0.1,0-0.2-0.2-0.4-0.5c-0.5-1.7-1.4-3-2.5-4.1L189.7,79.1z M197.5,77.7l0.2,0.2L194.9,90c-0.3,1.2-0.4,2.4-0.4,3.4l0.5,4.3
			c0,0.8-0.3,1.2-1,1.2c-0.4,0-0.9-0.2-1.6-0.6c-0.7-0.6-1-1.2-1-1.8c0-0.2,0.2-0.8,0.6-1.8c0.3-0.6,0.4-1.1,0.4-1.6
			c0-0.8-0.4-1.4-1.2-1.7l-1.2-0.3v-0.4h1.8c0.6,0,1-0.5,1.4-1.4L197.5,77.7z M192,73.6c1.9,0.4,3.2,0.8,3.8,1.1
			c0.6,0.3,1,0.6,1,0.8c0,0.5-0.2,1-0.5,1.5c-0.4,0.5-0.8,0.7-1,0.7c-0.1,0-0.3-0.1-0.4-0.4c-0.6-1.4-1.6-2.6-2.9-3.5L192,73.6z
			 M201.9,72.8l2.6,1.4c0.2,0.1,0.3,0.2,0.3,0.2c0,0.1-0.1,0.1-0.3,0.2c-0.3,0.1-0.6,0.4-0.9,0.7c-0.2,0.4-0.5,0.7-0.7,1h8.4
			l1.2-1.8l2.1,2.1c0.1,0.1,0.1,0.2,0.1,0.3c0,0.1-0.1,0.1-0.3,0.1h-11.9c-0.6,0.8-1.1,1.5-1.6,2.1l1.5,1.1h7.4l1.2-1.2l1.7,1.4
			c0.2,0.1,0.3,0.3,0.3,0.3c0,0.1-0.3,0.4-0.8,0.8c-0.2,1.7-0.3,3.3-0.4,4.7h0.8l1.4-1.7l1.8,1.9c0.1,0.1,0.1,0.1,0.1,0.3
			c0,0.2-0.2,0.2-0.5,0.2h-3.8c-0.3,2.9-0.4,5-0.5,6.1h1l1.2-1.8l2.1,2.1c0.1,0.1,0.1,0.2,0.1,0.3c0,0.1-0.1,0.1-0.3,0.1h-4
			l-0.1,0.6c-0.1,1.5-0.5,2.6-1,3.4c-0.6,0.8-1.6,1.3-2.9,1.7c0-0.7-0.3-1.3-0.6-1.9c-0.4-0.6-1.2-1.1-2.4-1.4l0.1-0.3l3.2,0.5
			c0.9,0,1.4-0.9,1.6-2.6h-8.7l-1.2,1.2l-1.8-1.4l1.4-1.2l0.7-5.4h-0.7c-0.3,0-0.9,0-1.7,0.1l-0.3-0.8h2.8l0.9-6.3
			c-1,1.2-2,2.2-2.9,2.9l-0.3-0.3C198.7,80.4,200.4,77.2,201.9,72.8z M209,93c0.1-0.8,0.2-2.8,0.4-6.1h-8.1l-1,6.1H209z M201.4,86.2
			h8c0.1-1.5,0.2-3.3,0.3-5.2h-7.6L201.4,86.2z M203.5,87.6c2.3,1.2,3.4,2.2,3.4,2.8c0,0.4-0.2,0.8-0.5,1.3
			c-0.4,0.5-0.9,0.8-1.2,0.8c-0.3,0-0.5-0.2-0.6-0.7c-0.1-1.5-0.5-2.8-1.2-4L203.5,87.6z M204,81.2c2.2,1,3.3,1.8,3.3,2.4
			c0,0.4-0.2,0.8-0.5,1.3c-0.4,0.5-0.9,0.8-1.3,0.8c-0.3,0-0.5-0.2-0.5-0.7c-0.1-1.3-0.5-2.5-1.1-3.5L204,81.2z"/>
		<path class="st6" d="M225.4,72.8l2.9,1.3c0.3,0.1,0.4,0.2,0.4,0.2c0,0.2-0.2,0.3-0.7,0.5c-0.2,0.1-0.4,0.2-0.5,0.3
			c1.9,0.7,3.5,1.4,4.8,2.1c1.4,0.8,2.1,1.6,2.1,2.3c0,1.3-0.4,1.9-1.1,2c-0.2,0-0.4-0.1-0.6-0.4c-1.2-2-3.1-3.9-5.6-5.6
			c-0.2,0.2-0.3,0.3-0.4,0.5c-1.1,2.1-2.1,3.9-3.1,5.3l1.8,1h4l1.3-1.4l1.8,1.4c0.2,0.1,0.3,0.3,0.3,0.3c0,0.1-0.3,0.4-0.9,0.9
			l-0.8,6.2c-0.1,0.7-0.3,1.3-0.8,1.7c-0.4,0.4-1.1,0.7-2.1,0.8c0-0.6-0.2-1.2-0.5-1.8c-0.3-0.6-0.9-1.1-1.8-1.4l0.1-0.3l2.4,0.5
			c0.5,0,0.7-0.4,0.8-1.3l0.4-5.1h-4.9v11.2c0,1,0.4,1.7,1.1,2c0.5,0,1.6,0.1,3.1,0.1c1.6,0,2.7-0.1,3.2-0.3
			c0.4-0.2,0.6-0.6,0.8-1.3c0.2-0.7,0.3-1.9,0.4-3.4h0.3c0.1,1.2,0.1,2.3,0.3,3.3c0.1,0.8,0.4,1.3,1,1.6c-0.4,0.9-1.1,1.5-1.8,1.7
			c-0.9,0.3-2.3,0.4-4.2,0.4c-1.7,0-3.1-0.1-4.2-0.3c-1.4-0.3-2.2-1.4-2.3-3.4V82.8c-0.2,0.2-0.3,0.4-0.5,0.5
			c-1.3,1.5-2.5,2.5-3.5,3.1l-0.2-0.3c1.6-1.6,3-3.5,4.1-5.7C223.6,78.3,224.6,75.7,225.4,72.8z M236,76.4c1.8,0.6,2.7,1,2.9,1
			c0.2,0.2,0.3,0.3,0.3,0.3c0,0.1,0,0.1,0,0.2c-0.1,0.1-0.4,0.3-0.9,0.7v14c0,0.4-0.2,0.7-0.7,0.9c-0.6,0.3-1.1,0.4-1.6,0.4V76.4z
			 M241.3,73.2L244,74c0.2,0.1,0.3,0.1,0.3,0.2c0,0.2-0.3,0.5-0.8,1v21.2c0,0.8-0.3,1.4-0.9,1.9c-0.9,0.7-1.6,1-2.3,1
			c-0.1-0.8-0.3-1.5-0.7-2c-0.3-0.3-1-0.7-2.1-1.1V96l2.8,0.2c0.6,0,0.9-0.3,0.9-0.8V73.2z"/>
		<path class="st6" d="M247.9,90h13.7c0.3-1.5,0.5-3.3,0.6-5.5v-4.7c1.8,0.6,2.9,0.9,3.1,1c0.2,0,0.3,0.1,0.3,0.3
			c0,0.1,0,0.2-0.1,0.3c-0.2,0.1-0.4,0.4-0.8,0.9l-0.3,4.3c-0.1,1.4-0.2,2.6-0.4,3.5h5.8l1.6-2l2.1,2.3c0.1,0.1,0.1,0.2,0.1,0.3
			c0,0.1-0.2,0.1-0.5,0.1h-9.4c-0.1,0.4-0.3,0.8-0.4,1.1c-0.1,0.3-0.2,0.5-0.4,0.7c2.6,0.7,4.8,1.4,6.7,2.2c1.9,0.8,2.8,1.6,2.8,2.4
			c0,1.3-0.4,2-1.1,2.1c-0.3,0-0.6-0.2-0.9-0.5c-1.7-2.1-4.3-4-7.8-5.8c-1.2,1.7-2.9,3.1-5.4,4c-2.7,1.1-5.6,2-8.9,2.6l-0.1-0.2
			c6.8-2.2,11-4.5,12.4-7.2c0.3-0.4,0.5-1,0.6-1.5h-11.5c-0.4,0-0.9,0-1.7,0.1L247.9,90z M258.8,72.8c2.9,1.2,4.4,2.2,4.4,2.8
			c0,0.4-0.2,0.9-0.6,1.4c-0.2,0.2-0.3,0.4-0.5,0.5h7.6l1.5-1.9l2.6,2.1c0.4,0.3,0.6,0.5,0.6,0.8c0,0.1-0.2,0.1-0.5,0.2
			c-0.9,0.1-1.7,0.4-2.3,0.8c-1,0.6-2,1.3-3,2.2l-0.2-0.2l1.6-3.2h-17.4l0.1,0.8c0,1.1-0.3,1.9-0.8,2.6c-0.6,0.7-1.2,1-2,1
			c-0.8,0-1.2-0.5-1.2-1.4c0-0.2,0.2-0.5,0.7-0.8c1.4-1.1,2.3-2.6,2.6-4.4h0.3l0.2,1.5h8.3c0-0.1-0.1-0.2-0.1-0.3
			c-0.2-1.5-1-2.9-2.2-4.1L258.8,72.8z M252.9,84.1c2.1,0.6,3.5,1.2,4.2,1.6c0.7,0.4,1.1,0.8,1.1,1.2c0,0.5-0.2,0.9-0.5,1.4
			c-0.4,0.4-0.7,0.7-1,0.7c-0.2,0-0.3-0.2-0.5-0.5c-0.7-1.7-1.9-3-3.5-4.1L252.9,84.1z M254.8,79.6c2.1,0.6,3.5,1.1,4.2,1.5
			c0.7,0.4,1,0.8,1,1.1c0,0.5-0.2,0.9-0.5,1.4c-0.4,0.4-0.7,0.7-1,0.7c-0.1,0-0.3-0.2-0.5-0.5c-0.7-1.6-1.8-2.9-3.4-3.9L254.8,79.6z
			"/>
		<path class="st6" d="M283,72.9l2.9,1.6c0.2,0.1,0.3,0.2,0.3,0.3c0,0.1-0.1,0.3-0.4,0.4l-1.2,0.4c-0.7,1.6-1.5,3.1-2.3,4.5l1,0.5
			c0.3,0.1,0.5,0.3,0.5,0.4c0,0.1-0.3,0.5-0.9,1v16.2c0,0.4-0.2,0.8-0.7,1c-0.4,0.2-1,0.3-1.6,0.3V82.7c-1.2,1.8-2.5,3.2-3.8,4.5
			l-0.2-0.3C279.7,82.5,281.8,77.9,283,72.9z M290.9,73.2c2.6,1.1,4,2,4,2.6c0,0.4-0.2,0.9-0.6,1.4c-0.2,0.2-0.3,0.3-0.4,0.4h5.7
			l1.4-1.7l1.8,1.9c0.1,0.1,0.1,0.1,0.1,0.3c0,0.2-0.2,0.2-0.5,0.2h-15.5c-0.3,0-0.9,0-1.7,0.1l-0.3-0.8h7.4c0-0.1,0-0.2-0.1-0.3
			c-0.1-1.4-0.6-2.7-1.4-3.8L290.9,73.2z M286.3,81.3h11l1.2-1.6l1.7,1.8c0.1,0.1,0.1,0.2,0.1,0.3c0,0.2-0.1,0.2-0.3,0.2h-11.6
			c-0.3,0-0.9,0-1.7,0.1L286.3,81.3z M286.5,85.4h10.6l1.2-1.6l1.7,1.8c0.1,0.1,0.1,0.1,0.1,0.3c0,0.2-0.1,0.2-0.3,0.2h-11.3
			c-0.3,0-0.9,0-1.7,0.1L286.5,85.4z M287,87.9l2.5,1.5h7.1l1.4-1.2l2.2,1.7c0.1,0.1,0.2,0.2,0.2,0.3c0,0.2-0.4,0.6-1.1,1.2v6.2
			c0,0.3-0.1,0.6-0.3,0.8c-0.2,0.3-0.9,0.4-2.1,0.5v-2.5h-7.5v1.2c0,0.4-0.1,0.6-0.4,0.8c-0.6,0.3-1.3,0.5-2,0.5V87.9z M289.3,95.8
			h7.5V90h-7.5V95.8z"/>
		<path class="st6" d="M309.3,92.5h0.3l0.3,2.7c0,1-0.3,1.8-1,2.4c-0.6,0.6-1.4,0.9-2.2,0.9c-0.8,0-1.1-0.5-1.1-1.4
			c0-0.2,0.3-0.4,0.8-0.7C308,95.4,309,94.1,309.3,92.5z M316,72.6l2.8,1c0.1,0.1,0.2,0.1,0.2,0.2c0,0.1-0.2,0.3-0.6,0.4
			c-0.5,0.2-1.2,0.9-2.1,2.1h7.3l1.2-1.1l2.1,1.6c0.1,0.1,0.2,0.2,0.2,0.3c0,0.2-0.4,0.5-1.1,1.1v11.3c0,0.3-0.1,0.5-0.2,0.7
			c-0.2,0.2-0.9,0.4-2.1,0.5v-1.2h-11v0.1c0,0.3-0.1,0.6-0.4,0.8c-0.6,0.3-1.2,0.5-1.9,0.5V75l2.4,1.4h2.4
			C315.8,74.5,316,73.2,316,72.6z M312.1,91.3l2.7,1.1c0.3,0.1,0.4,0.3,0.4,0.3c0,0.1-0.1,0.2-0.3,0.4l-0.5,0.6v1.5
			c0,0.7,0.3,1.1,1,1.2c0.5,0.1,1.7,0.1,3.5,0.1c2.2,0,3.6,0,4.1-0.1c0.5-0.1,0.8-0.4,1-1l0.6-2.5h0.2l0.1,1.5
			c0.1,0.8,0.5,1.6,1.2,2.2c-0.6,1.1-1.4,1.7-2.4,1.9c-1.2,0.1-2.8,0.2-4.7,0.2c-1.7,0-3.2-0.1-4.4-0.2c-1-0.2-1.7-0.6-2-1.3
			c-0.2-0.5-0.3-1.1-0.3-1.9V91.3z M312.8,80.6h11V77h-11V80.6z M312.8,84.7h11v-3.4h-11V84.7z M312.8,88.9h11v-3.5h-11V88.9z
			 M317.3,90.4c2.6,1.2,3.9,2.2,3.9,2.8c0,0.4-0.2,0.8-0.6,1.3c-0.5,0.5-0.9,0.8-1.3,0.8c-0.3,0-0.5-0.2-0.6-0.7
			c-0.2-1.5-0.7-2.9-1.7-4L317.3,90.4z M325.8,91.6c2.3,1,3.8,1.8,4.5,2.5c0.8,0.7,1.1,1.3,1.1,1.8c0,0.5-0.2,1-0.5,1.5
			c-0.4,0.5-0.8,0.8-1,0.8c-0.2,0-0.3-0.2-0.5-0.7c-0.8-2.3-2-4.2-3.7-5.6L325.8,91.6z"/>
		<path class="st6" d="M335.1,79.5h4.2v-6.8l2.7,0.8c0.2,0.1,0.3,0.1,0.3,0.2c0,0.1-0.3,0.5-0.8,1v4.7h0.8l1.5-1.7l1.8,1.9
			c0.1,0.1,0.1,0.2,0.1,0.3c0,0.1-0.2,0.2-0.5,0.2h-3.7v5l4.5-1.8l0.2,0.3c-2.5,1.5-4.1,2.5-4.8,2.9v9.3c0,0.8-0.3,1.4-0.8,1.9
			c-0.8,0.7-1.6,1-2.2,1c-0.1-0.8-0.3-1.4-0.7-1.9c-0.3-0.3-1-0.7-2.1-1.1v-0.3l2.7,0.1c0.6,0,0.9-0.3,0.9-0.8V88
			c-1,0.7-2.1,1.5-3.4,2.5l-1.4-2.5l4.7-1.9v-5.9h-2.1c-0.3,0-0.9,0-1.7,0.1L335.1,79.5z M345.8,78.7h4.7v-5.9l3.1,1.2
			c0.2,0.1,0.3,0.2,0.3,0.2c0,0.1,0,0.2-0.1,0.3c-0.1,0.1-0.4,0.4-0.9,0.8v3.4h3.4l1.5-1.7l1.8,1.9c0.1,0.1,0.1,0.1,0.1,0.3
			c0,0.2-0.1,0.2-0.4,0.2h-6.3v5h2l1.1-1.5l2.3,1.9c0.2,0.2,0.3,0.3,0.3,0.3c0,0.2-0.2,0.3-0.5,0.5c-0.4,0.2-0.6,0.4-0.7,0.7
			c-2,3.9-3.5,6.3-4.6,7.1c0.5,0.4,1.1,0.8,1.7,1.1c2,1.1,4.2,1.9,6.4,2.3V97c-0.7,0-1.3,0.2-1.8,0.4c-0.4,0.2-0.8,0.7-1.3,1.5
			c-2.3-0.9-4.2-2-5.8-3.4c-0.3-0.2-0.6-0.5-0.8-0.8c-0.7,0.5-1.5,1.1-2.5,1.6c-1.7,0.9-3.8,1.8-6.3,2.7l-0.3-0.3
			c3.5-1.9,5.9-3.4,7.3-4.5c0.3-0.2,0.5-0.4,0.8-0.7c-0.4-0.6-0.8-1.3-1.1-2c-0.6-1.1-1.2-3.3-1.9-6.4c-0.3,0-0.5,0-0.8,0.1
			l-0.4-0.8h4.6v-5h-2.7c-0.3,0-0.9,0-1.7,0.1L345.8,78.7z M348.1,85c0.8,2.7,1.7,4.8,2.7,6.3c0.2,0.3,0.4,0.6,0.6,0.8
			c0.4-0.5,0.8-0.9,1-1.4c0.9-1.2,1.7-3.1,2.4-5.7H348.1z"/>
		<path class="st6" d="M363.9,80.5H375v-7.7l3.4,1.2c0.2,0.1,0.3,0.1,0.3,0.2c0,0.1-0.1,0.2-0.2,0.3c-0.2,0.1-0.5,0.3-1,0.6v5.3h7.8
			l1.5-1.9l2,2.2c0.1,0.1,0.1,0.2,0.1,0.3c0,0.1-0.2,0.1-0.5,0.1h-10.1c0.9,3.3,2.4,5.9,4.4,7.9c2,1.9,4.3,3.1,6.9,3.9v0.5
			c-0.9,0-1.8,0-2.6,0.1c-1.1,0.2-1.9,0.6-2.4,1.1c-1.8-1.5-3.4-3.5-4.7-6.1c-1.2-2.3-1.9-4.8-2.3-7.3h-0.1v17c0,0.4-0.3,0.7-1,0.9
			c-0.5,0.2-1.1,0.2-1.5,0.2V82.2c-1.3,3.1-2.9,5.7-4.6,7.7c-1.9,2.4-4.2,4.4-7,6.2l-0.2-0.1c4.4-4.1,7.5-9.1,9.5-14.8h-6.9
			c-0.3,0-0.9,0-1.7,0.1L363.9,80.5z M379.8,74.3c1.6,0.4,3,0.8,4.2,1.2c1,0.4,1.5,0.8,1.5,1.2c0,1.5-0.4,2.3-1.2,2.4
			c-0.1,0-0.3-0.1-0.4-0.3c-0.9-1.5-2.3-2.9-4.2-4.2L379.8,74.3z"/>
		<path class="st6" d="M392.3,77.6h9.9c0.7-1.5,1.3-3.1,1.9-4.7l3.2,1.5c0.3,0.1,0.5,0.2,0.5,0.3c0,0.2-0.3,0.3-0.8,0.6
			c-0.6,0.2-1.1,0.6-1.6,1.2c-0.2,0.4-0.4,0.8-0.6,1.1h9.8l1.6-2.1l2,2.3c0.1,0.1,0.1,0.2,0.1,0.3c0,0.1-0.2,0.1-0.5,0.1h-13.4
			c-0.9,1.5-1.7,2.8-2.5,4v0.3h8.6l1.5-1.6l1.8,1.4c0.2,0.1,0.3,0.3,0.3,0.4c0,0.2-0.3,0.5-0.8,1.1V96c0,0.9-0.1,1.6-0.4,2.1
			c-0.3,0.4-1.2,0.9-2.7,1.4c-0.4-1.1-0.8-1.8-1.1-2.1c-0.4-0.4-1.2-0.7-2.4-1.1l0.1-0.3c1.8,0.2,2.9,0.2,3.2,0.2c0.7,0,1-0.3,1-0.9
			v-3.3h-9.2v5.9c0,0.5-0.2,0.9-0.6,1.1c-0.7,0.3-1.2,0.5-1.6,0.5V85.4c-0.5,0.7-1.1,1.3-1.6,1.8c-2.1,2.1-3.9,3.6-5.5,4.5l-0.3-0.3
			c2.7-2.2,4.9-4.8,6.8-7.8c1.1-1.6,2.1-3.4,3-5.3h-7.5c-0.3,0-0.9,0-1.7,0.1L392.3,77.6z M401.8,87.2h9.2v-4h-9.2V87.2z
			 M401.8,91.4h9.2v-3.5h-9.2V91.4z"/>
		<path class="st6" d="M429.3,72.9l1.8,1.9c0.2,0.2,0.3,0.4,0.3,0.6c0,0.1-0.2,0.2-0.4,0.3c-0.5,0.1-1,0.4-1.4,0.9
			c-0.9,1.8-2,3.9-3.3,6.4c1.7,1.3,2.9,2.5,3.6,3.6c0.6,1,0.9,2,0.9,3c0,0.9-0.3,1.7-1,2.4c-0.7,0.7-1.7,1.2-3.2,1.5
			c-0.2-0.9-0.5-1.6-0.8-2c-0.3-0.2-0.7-0.5-1.3-0.8V98c0,0.4-0.2,0.7-0.5,0.8c-0.6,0.3-1.2,0.4-1.8,0.4V73.1l2.5,1.5h2.8
			L429.3,72.9z M424.5,75.2v15c1.1,0.2,1.8,0.2,2.1,0.2c0.6,0,1-0.1,1.3-0.4c0.3-0.2,0.5-0.6,0.5-1.1c0-1-0.2-2-0.7-2.9
			c-0.4-0.9-1.1-1.9-2.2-2.9l2.4-7.9H424.5z M442.7,73.3l2.1,1.6c0.1,0.1,0.2,0.2,0.2,0.3c0,0.1-0.4,0.5-1.1,1.1V86
			c0,0.3-0.1,0.5-0.2,0.7c-0.2,0.2-0.9,0.4-2.1,0.5v-1h-4.6c0.6,2,1.3,3.6,2.3,5c2.4-1.5,4.3-3,5.5-4.4l2,2.1
			c0.2,0.2,0.3,0.4,0.3,0.4c0,0-0.2,0.1-0.5,0.1c-0.5,0.1-1,0.2-1.5,0.4c-1.6,0.7-3.4,1.3-5.4,1.9c0.1,0.1,0.2,0.3,0.3,0.4
			c1.1,1.3,2.3,2.3,3.8,3c1.4,0.7,2.8,1.2,4.1,1.3v0.3c-0.9,0-1.7,0.1-2.3,0.4c-0.8,0.3-1.5,0.8-2.2,1.4c-1.9-1.1-3.5-2.8-4.7-5.1
			c-1.1-2-1.8-4.4-2.3-7.2h-1.9v9.7l3.7-1.8l0.2,0.3c-2.6,2.3-4.4,3.9-5.4,5l-1.9-2.1c0.8-0.7,1.1-1.3,1.1-1.8V73.4l1.7,1h7.7
			L442.7,73.3z M434.3,75.1v5.1h7.2v-5.1H434.3z M434.3,80.9v4.6h7.2v-4.6H434.3z"/>
		<path class="st6" d="M459.1,73.9l2.9,1.6c0.2,0.1,0.3,0.2,0.3,0.3c0,0.1-0.1,0.3-0.4,0.4l-1.2,0.4c-2.9,5.3-6.4,9.3-10.3,12.1
			l-0.2-0.3C454.4,83.9,457.4,79.1,459.1,73.9z M461.4,81.4l2.9,2.2c0.2,0.1,0.3,0.3,0.3,0.4c0,0.1-0.1,0.2-0.4,0.3
			c-0.4,0.1-2.9,3.7-7.3,10.8l11.7-0.9c-0.9-1.9-2.1-3.5-3.6-4.8l0.1-0.2c2.9,1.7,4.8,3.1,5.7,4.2c0.9,1.1,1.4,2.1,1.4,3.1
			c0,0.5-0.2,1-0.5,1.5c-0.4,0.5-0.8,0.8-1,0.8c-0.2,0-0.4-0.4-0.7-1.1c-0.3-0.9-0.6-1.8-1-2.6c-7.8,1.4-12.6,2.5-14.5,3.2l-1.5-3.2
			c1.2-0.4,2.1-1.1,2.8-2.1C457.9,89.3,459.8,85.5,461.4,81.4z M464.3,73.1l2.9,0.9c0.3,0.1,0.4,0.2,0.4,0.2c0,0.1-0.2,0.3-0.6,0.5
			c-0.5,0.3-0.8,0.5-0.8,0.7c0,1.2,0.6,2.7,1.9,4.6c1.8,2.9,4.5,4.8,8.3,5.7V86c-1.5,0.2-2.6,0.7-3.3,1.7c-2.1-1.3-3.7-2.7-4.7-4.3
			C467,81.5,465.6,78,464.3,73.1z"/>
		<path class="st6" d="M479.8,80.1h14.2l1.4-1.8l1.9,2c0.1,0.1,0.1,0.2,0.1,0.3c0,0.2-0.2,0.2-0.5,0.2h-15.1c-0.3,0-0.9,0-1.7,0.1
			L479.8,80.1z M500.6,73.1l2.3,1.7c0.2,0.2,0.3,0.3,0.3,0.5c0,0.1-0.2,0.3-0.5,0.5c-0.5,0.3-0.7,0.6-0.7,1.2V96
			c0,1.1-0.2,1.8-0.6,2.2c-0.4,0.5-1.3,0.9-2.9,1.2c-0.3-0.9-0.6-1.5-1-1.8c-0.3-0.3-1.3-0.8-2.9-1.5v-0.3c2,0.3,3.4,0.4,4.2,0.4
			c0.6,0,0.9-0.3,0.9-0.8v-20h-15.8c-0.3,0-0.8,0-1.4,0.1l-0.5-0.8h17.4L500.6,73.1z M483.1,83.1l2.3,1.4h6.6l1.2-1.2l2.1,1.6
			c0.1,0.1,0.2,0.2,0.2,0.3c0,0.2-0.4,0.5-1.1,1.1v6.6c0,0.3-0.1,0.5-0.2,0.7c-0.2,0.3-0.9,0.4-2.1,0.5v-2h-6.8v2.1
			c0,0.3-0.1,0.6-0.4,0.8c-0.6,0.3-1.2,0.5-1.9,0.5V83.1z M485.4,91.4h6.8v-6.2h-6.8V91.4z"/>
	</g>
</g>
<g>
	<path class="st6" d="M161.6,111.2c0.2,0.6,0.5,1.1,0.8,1.4c0.5,0.6,1.2,0.9,1.9,0.9c0.4,0,0.8-0.1,1.1-0.4c0.3-0.3,0.5-0.6,0.5-1.1
		c0-0.4-0.2-0.8-0.5-1.1c-0.2-0.2-0.6-0.5-1.3-0.9l-1.1-0.7c-0.3-0.2-0.6-0.4-0.8-0.7c-0.4-0.4-0.6-0.9-0.6-1.4
		c0-0.7,0.2-1.2,0.7-1.7c0.4-0.4,1-0.7,1.8-0.7c0.3,0,0.7,0.1,1.1,0.2c0.4,0.1,0.7,0.2,0.7,0.2c0.2,0,0.3,0,0.3-0.1
		c0.1-0.1,0.1-0.2,0.1-0.3h0.3l0.3,2.8h-0.3c-0.2-0.8-0.6-1.4-1-1.8c-0.5-0.3-0.9-0.5-1.4-0.5c-0.4,0-0.7,0.1-0.9,0.3
		c-0.3,0.2-0.4,0.5-0.4,0.9c0,0.3,0.1,0.6,0.3,0.9c0.2,0.2,0.5,0.5,1,0.8l1.2,0.7c0.7,0.4,1.2,0.9,1.5,1.2c0.3,0.4,0.4,0.8,0.4,1.3
		c0,0.7-0.3,1.3-0.8,1.7c-0.5,0.5-1.2,0.7-2,0.7c-0.4,0-0.8-0.1-1.3-0.2c-0.4-0.2-0.7-0.2-0.8-0.2c-0.2,0-0.3,0-0.3,0.1
		c-0.1,0.1-0.1,0.2-0.1,0.3h-0.3l-0.4-2.8H161.6z"/>
	<path class="st6" d="M168.3,113.6c0.5-0.1,0.8-0.2,1-0.3c0.1-0.1,0.2-0.5,0.2-1.1v-5.7c0-0.5-0.1-0.8-0.2-0.9
		c-0.1-0.1-0.5-0.2-0.9-0.3v-0.2h3.7v0.2c-0.5,0-0.8,0.1-0.9,0.3c-0.1,0.1-0.2,0.4-0.2,0.9v2.6h4v-2.6c0-0.5-0.1-0.8-0.2-0.9
		c-0.1-0.1-0.5-0.2-1-0.3v-0.2h3.7v0.2c-0.5,0-0.8,0.1-0.9,0.3c-0.1,0.1-0.2,0.4-0.2,0.9v5.9c0,0.5,0.1,0.8,0.2,0.9
		c0.1,0.1,0.5,0.2,0.9,0.3v0.2h-3.7v-0.2c0.5-0.1,0.8-0.1,1-0.3c0.1-0.1,0.2-0.5,0.2-1.1v-2.6h-4v2.7c0,0.5,0.1,0.8,0.2,0.9
		c0.1,0.1,0.5,0.2,0.9,0.3v0.2h-3.7V113.6z"/>
	<path class="st6" d="M177.8,113.9v-0.2c0.3,0,0.6-0.2,0.8-0.4c0.2-0.2,0.5-0.8,0.9-1.8l2.7-6.5h0.3l3.3,7.5
		c0.2,0.5,0.4,0.8,0.5,0.9c0.1,0.1,0.4,0.2,0.7,0.2v0.2h-3.4v-0.2c0.4,0,0.6-0.1,0.7-0.1c0.1,0,0.2-0.2,0.2-0.4c0-0.1,0-0.2-0.1-0.3
		c0-0.2-0.1-0.3-0.2-0.5l-0.5-1.3h-3.5c-0.3,0.9-0.6,1.4-0.6,1.6c-0.1,0.2-0.1,0.3-0.1,0.5c0,0.2,0.1,0.4,0.3,0.5
		c0.1,0.1,0.3,0.1,0.6,0.1v0.2H177.8z M183.5,110.5l-1.5-3.6l-1.5,3.6H183.5z"/>
	<path class="st6" d="M187.3,113.6c0.5-0.1,0.9-0.2,1-0.4c0.2-0.2,0.2-0.6,0.2-1.3v-5.8l-0.2-0.2c-0.2-0.2-0.4-0.4-0.5-0.4
		c-0.1-0.1-0.3-0.1-0.6-0.1v-0.2h2.3l5.1,6.3V107c0-0.7-0.1-1.2-0.3-1.4c-0.1-0.1-0.5-0.2-0.9-0.3v-0.2h3.1v0.2
		c-0.5,0.1-0.8,0.2-1,0.4c-0.2,0.2-0.3,0.6-0.3,1.3v7H195l-5.8-7.2v5.1c0,0.7,0.1,1.2,0.3,1.4c0.1,0.1,0.4,0.2,0.9,0.3v0.2h-3.1
		V113.6z"/>
	<path class="st6" d="M203.1,105.2c0.5,0.1,0.8,0.2,0.9,0.2c0.2,0,0.3,0,0.4-0.1c0.1-0.1,0.1-0.2,0.2-0.3h0.3l0.1,2.8h-0.3
		c-0.3-0.6-0.5-1.1-0.8-1.4c-0.5-0.6-1.2-0.8-2-0.8c-0.8,0-1.6,0.3-2.2,1c-0.6,0.6-1,1.7-1,3.2c0,1.2,0.3,2.2,1,2.9
		c0.6,0.7,1.4,1,2.4,1c0.2,0,0.3,0,0.6,0c0.2,0,0.4-0.1,0.6-0.1c0.3-0.1,0.5-0.2,0.6-0.3c0.1-0.1,0.1-0.2,0.1-0.3v-2.1
		c0-0.5-0.1-0.8-0.2-1c-0.1-0.1-0.5-0.2-0.9-0.2v-0.2h3.4v0.2c-0.3,0-0.5,0.1-0.7,0.2c-0.2,0.1-0.3,0.4-0.3,0.9v2.6
		c0,0.2-0.4,0.4-1.1,0.6c-0.8,0.3-1.5,0.4-2.2,0.4c-1.3,0-2.4-0.4-3.3-1.1c-1-0.8-1.5-1.9-1.5-3.3c0-1.2,0.4-2.3,1.2-3.2
		c0.9-1,2-1.5,3.4-1.5C202.1,105,202.6,105,203.1,105.2z"/>
	<path class="st6" d="M206.4,113.6c0.5-0.1,0.8-0.2,1-0.3c0.1-0.1,0.2-0.5,0.2-1.1v-5.7c0-0.5-0.1-0.8-0.2-0.9
		c-0.1-0.1-0.5-0.2-0.9-0.3v-0.2h3.7v0.2c-0.5,0-0.8,0.1-0.9,0.3c-0.1,0.1-0.2,0.4-0.2,0.9v2.6h4v-2.6c0-0.5-0.1-0.8-0.2-0.9
		c-0.1-0.1-0.5-0.2-1-0.3v-0.2h3.7v0.2c-0.5,0-0.8,0.1-0.9,0.3c-0.1,0.1-0.2,0.4-0.2,0.9v5.9c0,0.5,0.1,0.8,0.2,0.9
		c0.1,0.1,0.5,0.2,0.9,0.3v0.2h-3.7v-0.2c0.5-0.1,0.8-0.1,1-0.3c0.1-0.1,0.2-0.5,0.2-1.1v-2.6h-4v2.7c0,0.5,0.1,0.8,0.2,0.9
		c0.1,0.1,0.5,0.2,0.9,0.3v0.2h-3.7V113.6z"/>
	<path class="st6" d="M215.9,113.9v-0.2c0.3,0,0.6-0.2,0.8-0.4c0.2-0.2,0.5-0.8,0.9-1.8l2.7-6.5h0.3l3.3,7.5
		c0.2,0.5,0.4,0.8,0.5,0.9c0.1,0.1,0.4,0.2,0.7,0.2v0.2h-3.4v-0.2c0.4,0,0.6-0.1,0.7-0.1c0.1,0,0.2-0.2,0.2-0.4c0-0.1,0-0.2-0.1-0.3
		c0-0.2-0.1-0.3-0.2-0.5l-0.5-1.3h-3.5c-0.3,0.9-0.6,1.4-0.6,1.6c-0.1,0.2-0.1,0.3-0.1,0.5c0,0.2,0.1,0.4,0.3,0.5
		c0.1,0.1,0.3,0.1,0.6,0.1v0.2H215.9z M221.6,110.5l-1.5-3.6l-1.5,3.6H221.6z"/>
	<path class="st6" d="M225.5,113.6c0.5,0,0.9-0.1,1-0.2s0.2-0.4,0.2-0.9v-5.9c0-0.5-0.1-0.8-0.2-0.9c-0.2-0.1-0.5-0.2-1-0.2v-0.2
		h3.9v0.2c-0.5,0-0.9,0.1-1,0.2c-0.2,0.1-0.2,0.5-0.2,0.9v5.9c0,0.5,0.1,0.8,0.2,0.9c0.2,0.1,0.5,0.2,1,0.2v0.2h-3.9V113.6z"/>
	<path class="st6" d="M239.9,105.2c0.5,0.1,0.8,0.2,0.8,0.2c0.1,0,0.2,0,0.4-0.1c0.1-0.1,0.2-0.2,0.2-0.3h0.3l0.1,3h-0.3
		c-0.2-0.6-0.4-1.1-0.7-1.4c-0.5-0.7-1.3-1-2.2-1c-0.9,0-1.7,0.4-2.3,1.1c-0.6,0.7-0.9,1.7-0.9,3c0,1.2,0.3,2.1,0.9,2.8
		c0.6,0.7,1.4,1.1,2.3,1.1c0.7,0,1.3-0.2,1.9-0.5c0.3-0.2,0.7-0.5,1.1-0.8l0.2,0.2c-0.3,0.4-0.7,0.7-1.1,1c-0.7,0.5-1.5,0.7-2.4,0.7
		c-1.4,0-2.5-0.5-3.4-1.4c-0.8-0.8-1.2-1.9-1.2-3.1c0-1.3,0.4-2.4,1.2-3.2c0.9-0.9,2-1.4,3.3-1.4C238.9,105,239.4,105,239.9,105.2z"
		/>
	<path class="st6" d="M245.6,108.9c-0.1-0.1-0.1-0.3-0.2-0.5c-0.1-0.2-0.1-0.4-0.2-0.5c0-0.1-0.1-0.3-0.1-0.4c0-0.1,0-0.3,0-0.4
		c0-0.6,0.2-1.1,0.6-1.5c0.4-0.4,0.9-0.6,1.4-0.6c0.5,0,1,0.1,1.3,0.4c0.3,0.3,0.5,0.7,0.5,1.2c0,0.6-0.2,1-0.6,1.4
		c-0.4,0.4-0.9,0.7-1.4,0.9c0.4,0.7,0.7,1.2,0.8,1.5c0.2,0.3,0.5,0.7,0.9,1.3c0.5-0.6,0.8-1,1-1.4c0.2-0.4,0.3-0.7,0.3-1
		c0-0.2-0.1-0.4-0.3-0.5c-0.1-0.1-0.3-0.1-0.6-0.1v-0.3h2.9v0.3c-0.3,0-0.5,0.1-0.6,0.2c-0.2,0.1-0.4,0.3-0.6,0.6l-0.3,0.6
		c-0.2,0.4-0.4,0.8-0.6,1c-0.2,0.2-0.4,0.6-0.7,1c0.2,0.2,0.4,0.4,0.6,0.6c0.5,0.4,1,0.6,1.4,0.6c0.3,0,0.5-0.1,0.7-0.2
		c0.1-0.1,0.3-0.3,0.5-0.5l0.2,0.2c0,0.1-0.1,0.3-0.3,0.5c-0.2,0.2-0.3,0.4-0.4,0.5c-0.2,0.2-0.5,0.3-0.8,0.4
		c-0.2,0.1-0.4,0.1-0.5,0.1c-0.4,0-0.8-0.1-1.2-0.4c-0.2-0.2-0.6-0.4-1-0.8c-0.4,0.4-0.8,0.6-1.2,0.8c-0.5,0.3-1.1,0.4-1.7,0.4
		c-0.7,0-1.2-0.2-1.7-0.6c-0.4-0.4-0.6-0.9-0.6-1.5c0-0.6,0.2-1.1,0.6-1.6c0.4-0.5,0.9-0.9,1.6-1.2L245.6,108.9z M246.8,113.1
		c0.3-0.1,0.7-0.4,1-0.6c-0.4-0.5-0.7-1-1-1.3c-0.2-0.4-0.6-1-1.1-1.8c-0.4,0.3-0.8,0.5-1,0.8c-0.4,0.4-0.5,0.9-0.5,1.4
		c0,0.5,0.2,0.9,0.5,1.3c0.3,0.4,0.7,0.5,1.2,0.5C246.2,113.3,246.5,113.3,246.8,113.1z M247.6,107.7c0.4-0.4,0.6-0.8,0.6-1.2
		c0-0.3-0.1-0.6-0.3-0.8c-0.2-0.2-0.4-0.3-0.7-0.3c-0.3,0-0.6,0.1-0.8,0.3c-0.2,0.2-0.3,0.5-0.3,0.8c0,0.3,0,0.6,0.1,0.9
		c0.1,0.3,0.2,0.6,0.4,1C247.1,108.1,247.4,107.9,247.6,107.7z"/>
	<path class="st6" d="M253.7,111.2c0.2,0.6,0.5,1.1,0.8,1.4c0.5,0.6,1.2,0.9,1.9,0.9c0.4,0,0.8-0.1,1.1-0.4c0.3-0.3,0.5-0.6,0.5-1.1
		c0-0.4-0.2-0.8-0.5-1.1c-0.2-0.2-0.6-0.5-1.3-0.9l-1.1-0.7c-0.3-0.2-0.6-0.4-0.8-0.7c-0.4-0.4-0.6-0.9-0.6-1.4
		c0-0.7,0.2-1.2,0.7-1.7c0.4-0.4,1-0.7,1.8-0.7c0.3,0,0.7,0.1,1.1,0.2c0.4,0.1,0.7,0.2,0.7,0.2c0.2,0,0.3,0,0.3-0.1
		c0.1-0.1,0.1-0.2,0.1-0.3h0.3l0.3,2.8h-0.3c-0.2-0.8-0.6-1.4-1-1.8c-0.5-0.3-0.9-0.5-1.4-0.5c-0.4,0-0.7,0.1-0.9,0.3
		c-0.3,0.2-0.4,0.5-0.4,0.9c0,0.3,0.1,0.6,0.3,0.9c0.2,0.2,0.5,0.5,1,0.8l1.2,0.7c0.7,0.4,1.2,0.9,1.5,1.2c0.3,0.4,0.4,0.8,0.4,1.3
		c0,0.7-0.3,1.3-0.8,1.7c-0.5,0.5-1.2,0.7-2,0.7c-0.4,0-0.8-0.1-1.3-0.2c-0.4-0.2-0.7-0.2-0.8-0.2c-0.2,0-0.3,0-0.3,0.1
		c-0.1,0.1-0.1,0.2-0.1,0.3h-0.3l-0.4-2.8H253.7z"/>
	<path class="st6" d="M263.9,113.6c0.5,0,0.9-0.1,1-0.2c0.2-0.1,0.2-0.4,0.2-0.9v-5.9c0-0.5-0.1-0.8-0.2-0.9c-0.2-0.1-0.5-0.2-1-0.2
		v-0.2h3.9v0.2c-0.5,0-0.9,0.1-1,0.2c-0.2,0.1-0.2,0.5-0.2,0.9v5.9c0,0.5,0.1,0.8,0.2,0.9c0.2,0.1,0.5,0.2,1,0.2v0.2h-3.9V113.6z"/>
	<path class="st6" d="M268.3,113.6c0.5-0.1,0.9-0.2,1-0.4c0.2-0.2,0.2-0.6,0.2-1.3v-5.8l-0.2-0.2c-0.2-0.2-0.4-0.4-0.5-0.4
		c-0.1-0.1-0.3-0.1-0.6-0.1v-0.2h2.3l5.1,6.3V107c0-0.7-0.1-1.2-0.3-1.4c-0.1-0.1-0.5-0.2-0.9-0.3v-0.2h3.1v0.2
		c-0.5,0.1-0.8,0.2-1,0.4c-0.2,0.2-0.3,0.6-0.3,1.3v7H276l-5.8-7.2v5.1c0,0.7,0.1,1.2,0.3,1.4c0.1,0.1,0.4,0.2,0.9,0.3v0.2h-3.1
		V113.6z"/>
	<path class="st6" d="M277.8,113.6c0.5-0.1,0.8-0.2,1-0.3c0.1-0.1,0.2-0.5,0.2-1.1v-5.7c0-0.5-0.1-0.8-0.2-0.9
		c-0.1-0.1-0.5-0.2-1-0.3v-0.2h7l0,1.9h-0.4c-0.1-0.6-0.3-1-0.5-1.1c-0.2-0.2-0.7-0.2-1.5-0.2h-1.8c-0.2,0-0.3,0-0.3,0.1
		c0,0.1-0.1,0.2-0.1,0.4v2.9h1.9c0.6,0,0.9-0.1,1.1-0.3c0.2-0.2,0.3-0.5,0.4-1h0.3v3.1h-0.3c-0.1-0.5-0.2-0.9-0.4-1
		c-0.2-0.2-0.5-0.2-1.1-0.2h-1.9v2.9c0,0.5,0.1,0.8,0.2,0.9c0.1,0.1,0.5,0.2,1,0.3v0.2h-3.7V113.6z"/>
	<path class="st6" d="M286.7,106.1c0.8-0.8,1.8-1.2,3-1.2c1.2,0,2.2,0.4,3,1.2c0.9,0.8,1.3,2,1.3,3.4c0,1.4-0.5,2.6-1.4,3.4
		c-0.8,0.8-1.8,1.1-3,1.1c-1.2,0-2.3-0.4-3.1-1.3c-0.8-0.9-1.2-2-1.2-3.3C285.4,108.1,285.8,106.9,286.7,106.1z M287.7,112.6
		c0.5,0.7,1.2,1,2,1c0.8,0,1.4-0.3,2-1c0.6-0.6,0.8-1.7,0.8-3.1c0-1.4-0.3-2.5-0.8-3.1c-0.6-0.6-1.2-1-2-1c-0.8,0-1.5,0.3-2,1
		c-0.5,0.7-0.8,1.7-0.8,3.1C286.9,110.9,287.2,111.9,287.7,112.6z"/>
	<path class="st6" d="M295,113.6c0.5-0.1,0.9-0.2,1-0.4c0.2-0.2,0.2-0.6,0.2-1.3v-5.4c0-0.5-0.1-0.8-0.2-0.9c-0.2-0.1-0.5-0.2-1-0.3
		v-0.2h2.6l3,6.6l3-6.6h2.6v0.2c-0.5,0-0.8,0.1-1,0.3c-0.1,0.1-0.2,0.5-0.2,0.9v5.9c0,0.5,0.1,0.8,0.2,0.9c0.1,0.1,0.5,0.2,1,0.3
		v0.2h-3.7v-0.2c0.5,0,0.9-0.1,1-0.3c0.1-0.1,0.2-0.5,0.2-1.1v-5.9l-3.4,7.5h-0.2l-3.3-7.2v5.3c0,0.7,0.1,1.2,0.3,1.4
		c0.1,0.1,0.4,0.2,0.9,0.3v0.2H295V113.6z"/>
	<path class="st6" d="M307,113.9v-0.2c0.3,0,0.6-0.2,0.8-0.4c0.2-0.2,0.5-0.8,0.9-1.8l2.7-6.5h0.3l3.3,7.5c0.2,0.5,0.4,0.8,0.5,0.9
		c0.1,0.1,0.4,0.2,0.7,0.2v0.2h-3.4v-0.2c0.4,0,0.6-0.1,0.7-0.1c0.1,0,0.2-0.2,0.2-0.4c0-0.1,0-0.2-0.1-0.3c0-0.2-0.1-0.3-0.2-0.5
		l-0.5-1.3h-3.5c-0.3,0.9-0.6,1.4-0.6,1.6c-0.1,0.2-0.1,0.3-0.1,0.5c0,0.2,0.1,0.4,0.3,0.5c0.1,0.1,0.3,0.1,0.6,0.1v0.2H307z
		 M312.7,110.5l-1.5-3.6l-1.5,3.6H312.7z"/>
	<path class="st6" d="M316.9,105.1h7.5l0.1,2.2h-0.3c-0.2-0.7-0.4-1.2-0.6-1.4c-0.2-0.2-0.7-0.3-1.5-0.3h-0.7v6.8
		c0,0.5,0.1,0.8,0.2,0.9c0.2,0.1,0.5,0.2,1,0.2v0.2h-3.8v-0.2c0.6,0,0.9-0.1,1-0.3c0.1-0.1,0.2-0.5,0.2-1.1v-6.6h-0.7
		c-0.7,0-1.2,0.1-1.5,0.3c-0.3,0.2-0.5,0.7-0.6,1.4h-0.3L316.9,105.1z"/>
	<path class="st6" d="M325.1,113.6c0.5,0,0.9-0.1,1-0.2c0.2-0.1,0.2-0.4,0.2-0.9v-5.9c0-0.5-0.1-0.8-0.2-0.9c-0.2-0.1-0.5-0.2-1-0.2
		v-0.2h3.9v0.2c-0.5,0-0.9,0.1-1,0.2c-0.2,0.1-0.2,0.5-0.2,0.9v5.9c0,0.5,0.1,0.8,0.2,0.9c0.2,0.1,0.5,0.2,1,0.2v0.2h-3.9V113.6z"/>
	<path class="st6" d="M331.3,106.1c0.8-0.8,1.8-1.2,3-1.2c1.2,0,2.2,0.4,3,1.2c0.9,0.8,1.3,2,1.3,3.4c0,1.4-0.5,2.6-1.4,3.4
		c-0.8,0.8-1.8,1.1-3,1.1c-1.2,0-2.3-0.4-3.1-1.3c-0.8-0.9-1.2-2-1.2-3.3C330,108.1,330.4,106.9,331.3,106.1z M332.3,112.6
		c0.5,0.7,1.2,1,2,1c0.8,0,1.4-0.3,2-1c0.6-0.6,0.8-1.7,0.8-3.1c0-1.4-0.3-2.5-0.8-3.1c-0.6-0.6-1.2-1-2-1c-0.8,0-1.5,0.3-2,1
		c-0.5,0.7-0.8,1.7-0.8,3.1C331.5,110.9,331.7,111.9,332.3,112.6z"/>
	<path class="st6" d="M339.5,113.6c0.5-0.1,0.9-0.2,1-0.4c0.2-0.2,0.2-0.6,0.2-1.3v-5.8l-0.2-0.2c-0.2-0.2-0.4-0.4-0.5-0.4
		c-0.1-0.1-0.3-0.1-0.6-0.1v-0.2h2.3l5.1,6.3V107c0-0.7-0.1-1.2-0.3-1.4c-0.1-0.1-0.5-0.2-0.9-0.3v-0.2h3.1v0.2
		c-0.5,0.1-0.8,0.2-1,0.4c-0.2,0.2-0.3,0.6-0.3,1.3v7h-0.2l-5.8-7.2v5.1c0,0.7,0.1,1.2,0.3,1.4c0.1,0.1,0.4,0.2,0.9,0.3v0.2h-3.1
		V113.6z"/>
	<path class="st6" d="M353,105.1h7.5l0.1,2.2h-0.3c-0.2-0.7-0.4-1.2-0.6-1.4c-0.2-0.2-0.7-0.3-1.5-0.3h-0.7v6.8
		c0,0.5,0.1,0.8,0.2,0.9s0.5,0.2,1,0.2v0.2h-3.8v-0.2c0.6,0,0.9-0.1,1-0.3c0.1-0.1,0.2-0.5,0.2-1.1v-6.6h-0.7
		c-0.7,0-1.2,0.1-1.5,0.3c-0.3,0.2-0.5,0.7-0.6,1.4h-0.3L353,105.1z"/>
	<path class="st6" d="M360.9,113.6c0.5-0.1,0.8-0.1,0.9-0.3c0.1-0.1,0.2-0.4,0.2-0.9v-5.9c0-0.5-0.1-0.8-0.2-0.9
		c-0.1-0.1-0.5-0.2-1-0.3v-0.2h7l0,1.9h-0.3c-0.1-0.6-0.3-1-0.5-1.1c-0.2-0.2-0.7-0.3-1.5-0.3h-1.8c-0.2,0-0.3,0-0.4,0.1
		c0,0.1-0.1,0.2-0.1,0.4v2.9h2c0.6,0,0.9-0.1,1.1-0.3c0.2-0.2,0.3-0.5,0.4-1h0.3v3.1h-0.3c-0.1-0.5-0.2-0.9-0.4-1
		c-0.2-0.2-0.5-0.2-1.1-0.2h-2v3.3c0,0.3,0.1,0.4,0.2,0.5c0.2,0,0.7,0.1,1.5,0.1c0.9,0,1.6-0.1,2-0.3c0.4-0.2,0.8-0.7,1.2-1.4h0.4
		l-0.6,2.2h-7.1V113.6z"/>
	<path class="st6" d="M375.2,105.2c0.5,0.1,0.8,0.2,0.8,0.2c0.1,0,0.2,0,0.4-0.1c0.1-0.1,0.2-0.2,0.2-0.3h0.3l0.1,3h-0.3
		c-0.2-0.6-0.4-1.1-0.7-1.4c-0.5-0.7-1.3-1-2.2-1c-0.9,0-1.7,0.4-2.3,1.1c-0.6,0.7-0.9,1.7-0.9,3c0,1.2,0.3,2.1,0.9,2.8
		c0.6,0.7,1.4,1.1,2.3,1.1c0.7,0,1.3-0.2,1.9-0.5c0.3-0.2,0.7-0.5,1.1-0.8l0.2,0.2c-0.3,0.4-0.7,0.7-1.1,1c-0.7,0.5-1.5,0.7-2.4,0.7
		c-1.4,0-2.5-0.5-3.4-1.4c-0.8-0.8-1.2-1.9-1.2-3.1c0-1.3,0.4-2.4,1.2-3.2c0.9-0.9,2-1.4,3.3-1.4C374.2,105,374.7,105,375.2,105.2z"
		/>
	<path class="st6" d="M377.9,113.6c0.5-0.1,0.8-0.2,1-0.3c0.1-0.1,0.2-0.5,0.2-1.1v-5.7c0-0.5-0.1-0.8-0.2-0.9
		c-0.1-0.1-0.5-0.2-0.9-0.3v-0.2h3.7v0.2c-0.5,0-0.8,0.1-0.9,0.3c-0.1,0.1-0.2,0.4-0.2,0.9v2.6h4v-2.6c0-0.5-0.1-0.8-0.2-0.9
		c-0.1-0.1-0.5-0.2-1-0.3v-0.2h3.7v0.2c-0.5,0-0.8,0.1-0.9,0.3c-0.1,0.1-0.2,0.4-0.2,0.9v5.9c0,0.5,0.1,0.8,0.2,0.9
		c0.1,0.1,0.5,0.2,0.9,0.3v0.2h-3.7v-0.2c0.5-0.1,0.8-0.1,1-0.3c0.1-0.1,0.2-0.5,0.2-1.1v-2.6h-4v2.7c0,0.5,0.1,0.8,0.2,0.9
		c0.1,0.1,0.5,0.2,0.9,0.3v0.2h-3.7V113.6z"/>
	<path class="st6" d="M387.4,113.6c0.5-0.1,0.9-0.2,1-0.4c0.2-0.2,0.2-0.6,0.2-1.3v-5.8l-0.2-0.2c-0.2-0.2-0.4-0.4-0.5-0.4
		c-0.1-0.1-0.3-0.1-0.6-0.1v-0.2h2.3l5.1,6.3V107c0-0.7-0.1-1.2-0.3-1.4c-0.1-0.1-0.5-0.2-0.9-0.3v-0.2h3.1v0.2
		c-0.5,0.1-0.8,0.2-1,0.4c-0.2,0.2-0.3,0.6-0.3,1.3v7h-0.2l-5.8-7.2v5.1c0,0.7,0.1,1.2,0.3,1.4c0.1,0.1,0.4,0.2,0.9,0.3v0.2h-3.1
		V113.6z"/>
	<path class="st6" d="M398.5,106.1c0.8-0.8,1.8-1.2,3-1.2c1.2,0,2.2,0.4,3,1.2c0.9,0.8,1.3,2,1.3,3.4c0,1.4-0.5,2.6-1.4,3.4
		c-0.8,0.8-1.8,1.1-3,1.1c-1.2,0-2.3-0.4-3.1-1.3c-0.8-0.9-1.2-2-1.2-3.3C397.1,108.1,397.6,106.9,398.5,106.1z M399.4,112.6
		c0.5,0.7,1.2,1,2,1c0.8,0,1.4-0.3,2-1c0.6-0.6,0.8-1.7,0.8-3.1c0-1.4-0.3-2.5-0.8-3.1c-0.6-0.6-1.2-1-2-1c-0.8,0-1.5,0.3-2,1
		c-0.5,0.7-0.8,1.7-0.8,3.1C398.6,110.9,398.9,111.9,399.4,112.6z"/>
	<path class="st6" d="M406.4,113.6c0.5-0.1,0.8-0.1,0.9-0.3c0.1-0.1,0.2-0.4,0.2-0.9v-5.9c0-0.5-0.1-0.8-0.2-0.9
		c-0.1-0.1-0.5-0.2-1-0.3v-0.2h3.7v0.2c-0.5,0-0.8,0.1-1,0.2c-0.2,0.1-0.2,0.4-0.2,0.9v6.3c0,0.1,0,0.3,0.1,0.3
		c0,0.1,0.2,0.1,0.3,0.2c0.1,0,0.2,0,0.3,0c0.1,0,0.3,0,0.6,0c1.2,0,2-0.1,2.4-0.3c0.4-0.2,0.8-0.7,1.2-1.5h0.3l-0.6,2.3h-7.1V113.6
		z"/>
	<path class="st6" d="M416.1,106.1c0.8-0.8,1.8-1.2,3-1.2c1.2,0,2.2,0.4,3,1.2c0.9,0.8,1.3,2,1.3,3.4c0,1.4-0.5,2.6-1.4,3.4
		c-0.8,0.8-1.8,1.1-3,1.1c-1.2,0-2.3-0.4-3.1-1.3c-0.8-0.9-1.2-2-1.2-3.3C414.7,108.1,415.2,106.9,416.1,106.1z M417,112.6
		c0.5,0.7,1.2,1,2,1c0.8,0,1.4-0.3,2-1c0.6-0.6,0.8-1.7,0.8-3.1c0-1.4-0.3-2.5-0.8-3.1c-0.6-0.6-1.2-1-2-1c-0.8,0-1.5,0.3-2,1
		c-0.5,0.7-0.8,1.7-0.8,3.1C416.2,110.9,416.5,111.9,417,112.6z"/>
	<path class="st6" d="M430.3,105.2c0.5,0.1,0.8,0.2,0.9,0.2c0.2,0,0.3,0,0.4-0.1c0.1-0.1,0.1-0.2,0.2-0.3h0.3l0.1,2.8h-0.3
		c-0.3-0.6-0.5-1.1-0.8-1.4c-0.5-0.6-1.2-0.8-2-0.8c-0.8,0-1.6,0.3-2.2,1c-0.6,0.6-1,1.7-1,3.2c0,1.2,0.3,2.2,1,2.9
		c0.6,0.7,1.4,1,2.4,1c0.2,0,0.3,0,0.6,0c0.2,0,0.4-0.1,0.6-0.1c0.3-0.1,0.5-0.2,0.6-0.3c0.1-0.1,0.1-0.2,0.1-0.3v-2.1
		c0-0.5-0.1-0.8-0.2-1c-0.1-0.1-0.5-0.2-0.9-0.2v-0.2h3.4v0.2c-0.3,0-0.5,0.1-0.7,0.2c-0.2,0.1-0.3,0.4-0.3,0.9v2.6
		c0,0.2-0.4,0.4-1.1,0.6c-0.8,0.3-1.5,0.4-2.2,0.4c-1.3,0-2.4-0.4-3.3-1.1c-1-0.8-1.5-1.9-1.5-3.3c0-1.2,0.4-2.3,1.2-3.2
		c0.9-1,2-1.5,3.4-1.5C429.3,105,429.8,105,430.3,105.2z"/>
	<path class="st6" d="M437.4,105.1v0.2c-0.3,0-0.5,0-0.7,0.1c-0.2,0.1-0.2,0.2-0.2,0.4c0,0.1,0,0.1,0,0.2c0,0.1,0.1,0.2,0.2,0.3
		l1.9,2.9l1.9-2.9c0.1-0.1,0.1-0.2,0.2-0.3c0-0.1,0-0.1,0-0.2c0-0.2-0.1-0.3-0.3-0.4c-0.1,0-0.3-0.1-0.6-0.1v-0.2h2.9v0.2
		c-0.3,0-0.5,0.1-0.7,0.2c-0.3,0.2-0.7,0.7-1.1,1.3l-2,3v2.6c0,0.5,0.1,0.8,0.2,1c0.2,0.1,0.5,0.2,1.1,0.2v0.2h-4v-0.2
		c0.6,0,1-0.1,1.1-0.3c0.1-0.1,0.2-0.5,0.2-1.1V110l-1.7-2.5c-0.6-0.9-1-1.4-1.3-1.7c-0.2-0.2-0.5-0.4-0.9-0.4v-0.2H437.4z"/>
	<path class="st6" d="M453.1,105.2c0.5,0.1,0.8,0.2,0.8,0.2c0.1,0,0.2,0,0.4-0.1c0.1-0.1,0.2-0.2,0.2-0.3h0.3l0.1,3h-0.3
		c-0.2-0.6-0.4-1.1-0.7-1.4c-0.5-0.7-1.3-1-2.2-1c-0.9,0-1.7,0.4-2.3,1.1c-0.6,0.7-0.9,1.7-0.9,3c0,1.2,0.3,2.1,0.9,2.8
		c0.6,0.7,1.4,1.1,2.3,1.1c0.7,0,1.3-0.2,1.9-0.5c0.3-0.2,0.7-0.5,1.1-0.8l0.2,0.2c-0.3,0.4-0.7,0.7-1.1,1c-0.7,0.5-1.5,0.7-2.4,0.7
		c-1.4,0-2.5-0.5-3.4-1.4c-0.8-0.8-1.2-1.9-1.2-3.1c0-1.3,0.4-2.4,1.2-3.2c0.9-0.9,2-1.4,3.3-1.4C452.1,105,452.6,105,453.1,105.2z"
		/>
	<path class="st6" d="M457.3,106.1c0.8-0.8,1.8-1.2,3-1.2c1.2,0,2.2,0.4,3,1.2c0.9,0.8,1.3,2,1.3,3.4c0,1.4-0.5,2.6-1.4,3.4
		c-0.8,0.8-1.8,1.1-3,1.1c-1.2,0-2.3-0.4-3.1-1.3c-0.8-0.9-1.2-2-1.2-3.3C456,108.1,456.4,106.9,457.3,106.1z M458.3,112.6
		c0.5,0.7,1.2,1,2,1c0.8,0,1.4-0.3,2-1c0.6-0.6,0.8-1.7,0.8-3.1c0-1.4-0.3-2.5-0.8-3.1c-0.6-0.6-1.2-1-2-1c-0.8,0-1.5,0.3-2,1
		c-0.5,0.7-0.8,1.7-0.8,3.1C457.4,110.9,457.7,111.9,458.3,112.6z"/>
	<path class="st6" d="M466.3,113.8c-0.1-0.1-0.2-0.3-0.2-0.5c0-0.2,0.1-0.4,0.2-0.5c0.1-0.1,0.3-0.2,0.5-0.2c0.2,0,0.4,0.1,0.5,0.2
		c0.1,0.1,0.2,0.3,0.2,0.5c0,0.2-0.1,0.4-0.2,0.5c-0.1,0.1-0.3,0.2-0.5,0.2C466.6,114,466.5,113.9,466.3,113.8z"/>
	<path class="st6" d="M470.5,114.9c-0.3,0.4-0.7,0.6-1,0.8l-0.1-0.3c0.4-0.2,0.7-0.5,0.9-0.8c0.2-0.3,0.2-0.5,0.2-0.7
		c0-0.1,0-0.1-0.1-0.1c0,0-0.1,0-0.1,0l-0.4,0c-0.2,0-0.3-0.1-0.5-0.2c-0.2-0.1-0.2-0.3-0.2-0.5c0-0.2,0.1-0.3,0.2-0.5
		c0.1-0.2,0.3-0.2,0.6-0.2c0.3,0,0.5,0.1,0.7,0.3c0.2,0.2,0.3,0.5,0.3,0.9C471,114.1,470.8,114.6,470.5,114.9z"/>
	<path class="st6" d="M474.5,113.6c0.5-0.1,0.8-0.1,0.9-0.3c0.1-0.1,0.2-0.4,0.2-0.9v-5.9c0-0.5-0.1-0.8-0.2-0.9
		c-0.1-0.1-0.5-0.2-1-0.3v-0.2h3.7v0.2c-0.5,0-0.8,0.1-1,0.2c-0.2,0.1-0.2,0.4-0.2,0.9v6.3c0,0.1,0,0.3,0.1,0.3
		c0,0.1,0.2,0.1,0.3,0.2c0.1,0,0.2,0,0.3,0c0.1,0,0.3,0,0.6,0c1.2,0,2-0.1,2.4-0.3c0.4-0.2,0.8-0.7,1.2-1.5h0.3l-0.6,2.3h-7.1V113.6
		z"/>
	<path class="st6" d="M482.7,105.1h7.5l0.1,2.2h-0.3c-0.2-0.7-0.4-1.2-0.6-1.4c-0.2-0.2-0.7-0.3-1.5-0.3H487v6.8
		c0,0.5,0.1,0.8,0.2,0.9c0.2,0.1,0.5,0.2,1,0.2v0.2h-3.8v-0.2c0.6,0,0.9-0.1,1-0.3c0.1-0.1,0.2-0.5,0.2-1.1v-6.6H485
		c-0.7,0-1.2,0.1-1.5,0.3c-0.3,0.2-0.5,0.7-0.6,1.4h-0.3L482.7,105.1z"/>
	<path class="st6" d="M490.7,113.6c0.5-0.1,0.8-0.1,0.9-0.3c0.1-0.1,0.2-0.4,0.2-0.9v-5.9c0-0.5-0.1-0.8-0.2-0.9
		c-0.1-0.1-0.5-0.2-1-0.3v-0.2h3.6c1.2,0,2.2,0.2,3,0.6c1.5,0.7,2.2,2,2.2,3.8c0,0.7-0.1,1.3-0.4,1.9c-0.3,0.6-0.7,1.1-1.2,1.5
		c-0.3,0.3-0.7,0.5-1.1,0.6c-0.7,0.2-1.5,0.4-2.5,0.4h-3.7V113.6z M493.3,113.3c0.1,0.1,0.3,0.1,0.7,0.1c1,0,1.9-0.2,2.5-0.6
		c1-0.6,1.5-1.7,1.5-3.2c0-1.4-0.4-2.4-1.3-3.1c-0.7-0.6-1.7-0.9-2.9-0.9c-0.3,0-0.5,0-0.6,0.1c-0.1,0.1-0.2,0.2-0.2,0.4v6.7
		C493.2,113,493.2,113.2,493.3,113.3z"/>
	<path class="st6" d="M501.2,113.8c-0.1-0.1-0.2-0.3-0.2-0.5c0-0.2,0.1-0.4,0.2-0.5c0.1-0.1,0.3-0.2,0.5-0.2c0.2,0,0.4,0.1,0.5,0.2
		c0.1,0.1,0.2,0.3,0.2,0.5c0,0.2-0.1,0.4-0.2,0.5c-0.1,0.1-0.3,0.2-0.5,0.2C501.5,114,501.4,113.9,501.2,113.8z"/>
</g>
</svg>
